ply
format ascii 1.0
comment Created by Blender 2.76 (sub 0) - www.blender.org, source file: ''
element vertex 1440
property float x
property float y
property float z
property float nx
property float ny
property float nz
element face 480
property list uchar uint vertex_indices
end_header
-0.851045 -0.319320 -0.368448 -0.902498 -0.169438 -0.395965
-0.922554 -0.283733 -0.220690 -0.902498 -0.169438 -0.395965
-0.929451 -0.049651 -0.305136 -0.902498 -0.169438 -0.395965
-0.821803 -0.194321 -0.476763 -0.770688 -0.329844 -0.545200
-0.649796 -0.343461 -0.629681 -0.770688 -0.329844 -0.545200
-0.775064 -0.454155 -0.385634 -0.770688 -0.329844 -0.545200
-0.775064 -0.454155 -0.385634 -0.848842 -0.399202 -0.346561
-0.854412 -0.525049 -0.109622 -0.848842 -0.399202 -0.346561
-0.922554 -0.283733 -0.220690 -0.848842 -0.399202 -0.346561
-0.366840 -0.327897 -0.800038 -0.250027 -0.390661 -0.885929
-0.206275 -0.320205 -0.848744 -0.250027 -0.390661 -0.885929
-0.188916 -0.549205 -0.752663 -0.250027 -0.390661 -0.885929
-0.420735 -0.464876 -0.719141 -0.472509 -0.274319 -0.837547
-0.649796 -0.343461 -0.629681 -0.472509 -0.274319 -0.837547
-0.449825 -0.196465 -0.790641 -0.472509 -0.274319 -0.837547
-0.449825 -0.196465 -0.790641 -0.306151 -0.162097 -0.938081
-0.214250 -0.049651 -0.892892 -0.306151 -0.162097 -0.938081
-0.206275 -0.320205 -0.848744 -0.306151 -0.162097 -0.938081
-0.967114 -0.216316 -0.073442 -0.971122 -0.088539 -0.221547
-0.984822 -0.049651 -0.062426 -0.971122 -0.088539 -0.221547
-0.929451 -0.049651 -0.305136 -0.971122 -0.088539 -0.221547
-0.922554 -0.283733 -0.220690 -0.942510 -0.316078 -0.108492
-0.854412 -0.525049 -0.109622 -0.942510 -0.316078 -0.108492
-0.949167 -0.299649 0.056875 -0.942510 -0.316078 -0.108492
-0.949167 -0.299649 0.056875 -0.990811 -0.134498 0.014273
-0.980871 -0.049651 0.211797 -0.990811 -0.134498 0.014273
-0.984822 -0.049651 -0.062426 -0.990811 -0.134498 0.014273
-0.967114 0.117014 -0.073442 -0.964158 0.114717 -0.239246
-0.922554 0.184431 -0.220690 -0.964158 0.114717 -0.239246
-0.929451 -0.049651 -0.305136 -0.964158 0.114717 -0.239246
-0.984822 -0.049651 -0.062426 -0.990811 0.134498 0.014273
-0.980871 -0.049651 0.211797 -0.990811 0.134498 0.014273
-0.949167 0.200347 0.056875 -0.990811 0.134498 0.014273
-0.949167 0.200347 0.056875 -0.942510 0.316078 -0.108492
-0.854412 0.425747 -0.109622 -0.942510 0.316078 -0.108492
-0.922554 0.184431 -0.220690 -0.942510 0.316078 -0.108492
-0.851045 0.220018 -0.368448 -0.891230 0.159438 -0.424605
-0.821803 0.095019 -0.476763 -0.891230 0.159438 -0.424605
-0.929451 -0.049651 -0.305136 -0.891230 0.159438 -0.424605
-0.922554 0.184431 -0.220690 -0.848842 0.399202 -0.346561
-0.854412 0.425747 -0.109622 -0.848842 0.399202 -0.346561
-0.775064 0.354853 -0.385634 -0.848842 0.399202 -0.346561
-0.775064 0.354853 -0.385634 -0.770688 0.329844 -0.545200
-0.649796 0.244159 -0.629681 -0.770688 0.329844 -0.545200
-0.821803 0.095019 -0.476763 -0.770688 0.329844 -0.545200
-0.038815 -0.327897 -0.859299 -0.048222 -0.406842 -0.912225
0.039979 -0.464877 -0.802372 -0.048222 -0.406842 -0.912225
-0.188916 -0.549205 -0.752663 -0.048222 -0.406842 -0.912225
-0.206275 -0.320205 -0.848744 -0.041435 -0.162096 -0.985905
-0.214250 -0.049651 -0.892892 -0.041435 -0.162096 -0.985905
0.042213 -0.196466 -0.879532 -0.041435 -0.162096 -0.985905
0.042213 -0.196466 -0.879532 0.149584 -0.274320 -0.949933
0.285866 -0.343462 -0.798715 0.149584 -0.274320 -0.949933
0.039979 -0.464877 -0.802372 0.149584 -0.274320 -0.949933
-0.348662 -0.936205 -0.071783 -0.400181 -0.916265 -0.017681
-0.311462 -0.955591 0.090862 -0.400181 -0.916265 -0.017681
-0.536817 -0.857952 0.131571 -0.400181 -0.916265 -0.017681
-0.495447 -0.866176 -0.113777 -0.326143 -0.908207 -0.262281
-0.418867 -0.818863 -0.372834 -0.326143 -0.908207 -0.262281
-0.234137 -0.941711 -0.177154 -0.326143 -0.908207 -0.262281
-0.234137 -0.941711 -0.177154 -0.183427 -0.977565 -0.103543
-0.045212 -1.000455 0.042766 -0.183427 -0.977565 -0.103543
-0.311462 -0.955591 0.090862 -0.183427 -0.977565 -0.103543
-0.656227 -0.319321 0.709939 -0.686328 -0.159441 0.709601
-0.590933 -0.194322 0.801179 -0.686328 -0.159441 0.709601
-0.751830 -0.049651 0.678065 -0.686328 -0.159441 0.709601
-0.774917 -0.283734 0.596541 -0.673926 -0.399206 0.621658
-0.749945 -0.525050 0.468648 -0.673926 -0.399206 0.621658
-0.579035 -0.454156 0.699453 -0.673926 -0.399206 0.621658
-0.579035 -0.454156 0.699453 -0.531209 -0.329849 0.780395
-0.376291 -0.343462 0.884247 -0.531209 -0.329849 0.780395
-0.590933 -0.194322 0.801179 -0.531209 -0.329849 0.780395
-0.536467 0.670236 0.405548 -0.511220 0.817726 0.264536
-0.412214 0.766876 0.346938 -0.511220 0.817726 0.264536
-0.536817 0.758650 0.131571 -0.511220 0.817726 0.264536
-0.658468 0.622202 0.300563 -0.604158 0.661486 0.444329
-0.749945 0.425748 0.468648 -0.604158 0.661486 0.444329
-0.515844 0.592410 0.538843 -0.604158 0.661486 0.444329
-0.515844 0.592410 0.538843 -0.413141 0.773708 0.480302
-0.249830 0.719564 0.562829 -0.413141 0.773708 0.480302
-0.412214 0.766876 0.346938 -0.413141 0.773708 0.480302
-0.154885 0.664933 -0.564294 -0.116847 0.664820 -0.737808
-0.022289 0.599660 -0.644109 -0.116847 0.664820 -0.737808
-0.188916 0.449903 -0.752663 -0.116847 0.664820 -0.737808
-0.307027 0.599658 -0.592671 -0.213256 0.808023 -0.549200
-0.418867 0.719561 -0.372834 -0.213256 0.808023 -0.549200
-0.131892 0.751671 -0.437025 -0.213256 0.808023 -0.549200
-0.131892 0.751671 -0.437025 0.007614 0.808023 -0.589101
0.159405 0.719564 -0.477298 0.007614 0.808023 -0.589101
-0.022289 0.599660 -0.644109 0.007614 0.808023 -0.589101
0.092181 -0.597569 -0.713600 0.014402 -0.576281 -0.817125
-0.022289 -0.698962 -0.644109 0.014402 -0.576281 -0.817125
-0.188916 -0.549205 -0.752663 0.014402 -0.576281 -0.817125
0.039979 -0.464877 -0.802372 0.255294 -0.491945 -0.832355
0.285866 -0.343462 -0.798715 0.255294 -0.491945 -0.832355
0.238707 -0.600974 -0.660983 0.255294 -0.491945 -0.832355
0.238707 -0.600974 -0.660983 0.206993 -0.673524 -0.709591
0.159405 -0.818867 -0.477298 0.206993 -0.673524 -0.709591
-0.022289 -0.698962 -0.644109 0.206993 -0.673524 -0.709591
-0.289401 -0.936206 0.256242 -0.379970 -0.906265 0.185219
-0.412214 -0.866178 0.346938 -0.379970 -0.906265 0.185219
-0.536817 -0.857952 0.131571 -0.379970 -0.906265 0.185219
-0.311462 -0.955591 0.090862 -0.135608 -0.977565 0.161173
-0.045212 -1.000455 0.042766 -0.135608 -0.977565 0.161173
-0.145246 -0.941713 0.314884 -0.135608 -0.977565 0.161173
-0.145246 -0.941713 0.314884 -0.213763 -0.908207 0.359813
-0.249830 -0.818867 0.562829 -0.213763 -0.908207 0.359813
-0.412214 -0.866178 0.346938 -0.213763 -0.908207 0.359813
-0.525231 -0.049651 0.855640 -0.616740 0.016180 0.787001
-0.590933 0.095019 0.801179 -0.616740 0.016180 0.787001
-0.751830 -0.049651 0.678065 -0.616740 0.016180 0.787001
-0.590933 -0.194322 0.801179 -0.425500 -0.112224 0.897973
-0.376291 -0.343462 0.884247 -0.425500 -0.112224 0.897973
-0.382541 -0.049651 0.918004 -0.425500 -0.112224 0.897973
-0.382541 -0.049651 0.918004 -0.425500 0.112224 0.897973
-0.376291 0.244160 0.884247 -0.425500 0.112224 0.897973
-0.590933 0.095019 0.801179 -0.425500 0.112224 0.897973
-0.289401 0.836904 0.256242 -0.368702 0.916265 0.156579
-0.311462 0.856288 0.090862 -0.368702 0.916265 0.156579
-0.536817 0.758650 0.131571 -0.368702 0.916265 0.156579
-0.412214 0.766876 0.346938 -0.213763 0.908207 0.359813
-0.249830 0.719564 0.562829 -0.213763 0.908207 0.359813
-0.145246 0.842411 0.314884 -0.213763 0.908207 0.359813
-0.145246 0.842411 0.314884 -0.135608 0.977565 0.161174
-0.045212 0.901152 0.042766 -0.135608 0.977565 0.161174
-0.311462 0.856288 0.090862 -0.135608 0.977565 0.161174
0.092181 0.498267 -0.713600 0.021366 0.550102 -0.834824
0.039979 0.365574 -0.802372 0.021366 0.550102 -0.834824
-0.188916 0.449903 -0.752663 0.021366 0.550102 -0.834824
-0.022289 0.599660 -0.644109 0.206993 0.673524 -0.709591
0.159405 0.719564 -0.477298 0.206993 0.673524 -0.709591
0.238707 0.501671 -0.660983 0.206993 0.673524 -0.709591
0.238707 0.501671 -0.660983 0.255294 0.491945 -0.832355
0.285866 0.244160 -0.798715 0.255294 0.491945 -0.832355
0.039979 0.365574 -0.802372 0.255294 0.491945 -0.832355
0.657996 -0.666532 -0.084268 0.657112 -0.746823 -0.102266
0.619482 -0.721504 0.069705 0.657112 -0.746823 -0.102266
0.446392 -0.857952 -0.046040 0.657112 -0.746823 -0.102266
0.568043 -0.721505 -0.215032 0.775205 -0.578359 -0.254082
0.659520 -0.525050 -0.383116 0.775205 -0.578359 -0.254082
0.743351 -0.537202 -0.099689 0.775205 -0.578359 -0.254082
0.743351 -0.537202 -0.099689 0.815107 -0.578358 -0.033211
0.763987 -0.525049 0.195154 0.815107 -0.578358 -0.033211
0.619482 -0.721504 0.069705 0.815107 -0.578358 -0.033211
0.348150 -0.597567 0.703248 0.312119 -0.550098 0.774580
0.330310 -0.464876 0.804673 0.312119 -0.550098 0.774580
0.098491 -0.549205 0.838195 0.312119 -0.550098 0.774580
0.216602 -0.698961 0.678203 0.442194 -0.673522 0.592312
0.328443 -0.818863 0.458365 0.442194 -0.673522 0.592312
0.467002 -0.600971 0.602690 0.442194 -0.673522 0.592312
0.467002 -0.600971 0.602690 0.530397 -0.491941 0.690415
0.559371 -0.343461 0.715212 0.530397 -0.491941 0.690415
0.330310 -0.464876 0.804673 0.530397 -0.491941 0.690415
0.276415 0.228594 0.885570 0.274011 0.406841 0.871435
0.330310 0.365573 0.804673 0.274011 0.406841 0.871435
0.098491 0.449903 0.838195 0.274011 0.406841 0.871435
0.115850 0.220903 0.934276 0.306151 0.162096 0.938081
0.123826 -0.049651 0.978424 0.306151 0.162096 0.938081
0.359400 0.097163 0.876173 0.306151 0.162096 0.938081
0.359400 0.097163 0.876173 0.472509 0.274319 0.837547
0.559371 0.244159 0.715212 0.472509 0.274319 0.837547
0.330310 0.365573 0.804673 0.472509 0.274319 0.837547
0.541927 0.670234 0.210739 0.595451 0.801544 0.054454
0.619482 0.622201 0.069705 0.595451 0.801544 0.054454
0.446392 0.758650 -0.046040 0.595451 0.801544 0.054454
0.405022 0.766874 0.199308 0.555081 0.773705 0.305393
0.328443 0.719561 0.458365 0.555081 0.773705 0.305393
0.569247 0.592407 0.342822 0.555081 0.773705 0.305393
0.569247 0.592407 0.342822 0.721440 0.661482 0.204857
0.763987 0.425747 0.195154 0.721440 0.661482 0.204857
0.619482 0.622201 0.069705 0.721440 0.661482 0.204857
0.777756 0.117015 -0.388660 0.832219 0.088539 -0.547332
0.798199 -0.049651 -0.384537 0.832219 0.088539 -0.547332
0.661405 -0.049651 -0.592533 0.832219 0.088539 -0.547332
0.684492 0.184432 -0.511009 0.844973 0.316079 -0.431411
0.659520 0.425748 -0.383116 0.844973 0.316079 -0.431411
0.806541 0.200347 -0.260300 0.844973 0.316079 -0.431411
0.806541 0.200347 -0.260300 0.933176 0.134498 -0.333305
0.890447 -0.049651 -0.126265 0.933176 0.134498 -0.333305
0.798199 -0.049651 -0.384537 0.933176 0.134498 -0.333305
0.894397 -0.049651 0.147958 0.990811 0.134498 -0.014273
0.890447 -0.049651 -0.126265 0.990811 0.134498 -0.014273
0.858742 0.200347 0.028657 0.990811 0.134498 -0.014273
0.858742 0.200347 0.028657 0.942510 0.316078 0.108492
0.763987 0.425747 0.195154 0.942510 0.316078 0.108492
0.832129 0.184431 0.306222 0.942510 0.316078 0.108492
0.876689 0.117014 0.158974 0.964158 0.114717 0.239246
0.832129 0.184431 0.306222 0.964158 0.114717 0.239246
0.839026 -0.049651 0.390668 0.964158 0.114717 0.239246
0.858742 0.200347 0.028657 0.957982 0.228735 -0.173063
0.890447 -0.049651 -0.126265 0.957982 0.228735 -0.173063
0.806541 0.200347 -0.260300 0.957982 0.228735 -0.173063
0.806541 0.200347 -0.260300 0.866988 0.416061 -0.274271
0.659520 0.425748 -0.383116 0.866988 0.416061 -0.274271
0.743351 0.437900 -0.099689 0.866988 0.416061 -0.274271
0.743351 0.437900 -0.099689 0.908152 0.416059 -0.046413
0.763987 0.425747 0.195154 0.908152 0.416059 -0.046413
0.858742 0.200347 0.028657 0.908152 0.416059 -0.046413
0.743351 0.437900 -0.099689 0.775205 0.578359 -0.254082
0.659520 0.425748 -0.383116 0.775205 0.578359 -0.254082
0.568043 0.622202 -0.215032 0.775205 0.578359 -0.254082
0.657996 0.567229 -0.084268 0.651359 0.746823 -0.134111
0.568043 0.622202 -0.215032 0.651359 0.746823 -0.134111
0.446392 0.758650 -0.046040 0.651359 0.746823 -0.134111
0.619482 0.622201 0.069705 0.815107 0.578358 -0.033211
0.763987 0.425747 0.195154 0.815107 0.578358 -0.033211
0.743351 0.437900 -0.099689 0.815107 0.578358 -0.033211
0.832129 0.184431 0.306222 0.848842 0.399202 0.346561
0.763987 0.425747 0.195154 0.848842 0.399202 0.346561
0.684639 0.354853 0.471165 0.848842 0.399202 0.346561
0.684639 0.354853 0.471165 0.770688 0.329844 0.545199
0.559371 0.244159 0.715212 0.770688 0.329844 0.545199
0.731378 0.095019 0.562295 0.770688 0.329844 0.545199
0.760620 0.220018 0.453979 0.891230 0.159438 0.424605
0.731378 0.095019 0.562295 0.891230 0.159438 0.424605
0.839026 -0.049651 0.390668 0.891230 0.159438 0.424605
0.684639 0.354853 0.471165 0.748858 0.557423 0.358457
0.763987 0.425747 0.195154 0.748858 0.557423 0.358457
0.569247 0.592407 0.342822 0.748858 0.557423 0.358457
0.569247 0.592407 0.342822 0.577236 0.673197 0.462173
0.328443 0.719561 0.458365 0.577236 0.673197 0.462173
0.467002 0.501669 0.602690 0.577236 0.673197 0.462173
0.467002 0.501669 0.602690 0.668231 0.485872 0.563379
0.559371 0.244159 0.715212 0.668231 0.485872 0.563379
0.684639 0.354853 0.471165 0.668231 0.485872 0.563379
0.467002 0.501669 0.602690 0.442194 0.673522 0.592312
0.328443 0.719561 0.458365 0.442194 0.673522 0.592312
0.216602 0.599658 0.678203 0.442194 0.673522 0.592312
0.348150 0.498265 0.703248 0.299402 0.576278 0.760435
0.216602 0.599658 0.678203 0.299402 0.576278 0.760435
0.098491 0.449903 0.838195 0.299402 0.576278 0.760435
0.330310 0.365573 0.804673 0.530397 0.491941 0.690415
0.559371 0.244159 0.715212 0.530397 0.491941 0.690415
0.467002 0.501669 0.602690 0.530397 0.491941 0.690415
0.731378 0.095019 0.562295 0.712800 0.112222 0.692331
0.559371 0.244159 0.715212 0.712800 0.112222 0.692331
0.577038 -0.049651 0.744648 0.712800 0.112222 0.692331
0.577038 -0.049651 0.744648 0.712800 -0.112222 0.692331
0.559371 -0.343461 0.715212 0.712800 -0.112222 0.692331
0.731378 -0.194321 0.562295 0.712800 -0.112222 0.692331
0.688886 -0.049651 0.636301 0.853122 -0.016179 0.521460
0.731378 -0.194321 0.562295 0.853122 -0.016179 0.521460
0.839026 -0.049651 0.390668 0.853122 -0.016179 0.521460
0.577038 -0.049651 0.744648 0.569780 0.115772 0.813601
0.559371 0.244159 0.715212 0.569780 0.115772 0.813601
0.359400 0.097163 0.876173 0.569780 0.115772 0.813601
0.359400 0.097163 0.876173 0.398160 0.000000 0.917316
0.123826 -0.049651 0.978424 0.398160 0.000000 0.917316
0.359400 -0.196465 0.876173 0.398160 0.000000 0.917316
0.359400 -0.196465 0.876173 0.569780 -0.115772 0.813601
0.559371 -0.343461 0.715212 0.569780 -0.115772 0.813601
0.577038 -0.049651 0.744648 0.569780 -0.115772 0.813601
0.359400 -0.196465 0.876173 0.306151 -0.162096 0.938081
0.123826 -0.049651 0.978424 0.306151 -0.162096 0.938081
0.115850 -0.320205 0.934276 0.306151 -0.162096 0.938081
0.276415 -0.327897 0.885570 0.250027 -0.390661 0.885929
0.115850 -0.320205 0.934276 0.250027 -0.390661 0.885929
0.098491 -0.549205 0.838195 0.250027 -0.390661 0.885929
0.330310 -0.464876 0.804673 0.472509 -0.274319 0.837547
0.559371 -0.343461 0.715212 0.472509 -0.274319 0.837547
0.359400 -0.196465 0.876173 0.472509 -0.274319 0.837547
0.731378 -0.194321 0.562295 0.770688 -0.329844 0.545199
0.559371 -0.343461 0.715212 0.770688 -0.329844 0.545199
0.684639 -0.454155 0.471165 0.770688 -0.329844 0.545199
0.684639 -0.454155 0.471165 0.848842 -0.399202 0.346561
0.763987 -0.525049 0.195154 0.848842 -0.399202 0.346561
0.832129 -0.283733 0.306222 0.848842 -0.399202 0.346561
0.760620 -0.319320 0.453979 0.902498 -0.169438 0.395966
0.832129 -0.283733 0.306222 0.902498 -0.169438 0.395966
0.839026 -0.049651 0.390668 0.902498 -0.169438 0.395966
0.684639 -0.454155 0.471165 0.668231 -0.485872 0.563379
0.559371 -0.343461 0.715212 0.668231 -0.485872 0.563379
0.467002 -0.600971 0.602690 0.668231 -0.485872 0.563379
0.467002 -0.600971 0.602690 0.577237 -0.673197 0.462173
0.328443 -0.818863 0.458365 0.577237 -0.673197 0.462173
0.569247 -0.691709 0.342821 0.577237 -0.673197 0.462173
0.569247 -0.691709 0.342821 0.748857 -0.557424 0.358457
0.763987 -0.525049 0.195154 0.748857 -0.557424 0.358457
0.684639 -0.454155 0.471165 0.748857 -0.557424 0.358457
0.569247 -0.691709 0.342821 0.555082 -0.773705 0.305393
0.328443 -0.818863 0.458365 0.555082 -0.773705 0.305393
0.405022 -0.866176 0.199308 0.555082 -0.773705 0.305393
0.541927 -0.769536 0.210739 0.571466 -0.817724 0.068948
0.405022 -0.866176 0.199308 0.571466 -0.817724 0.068948
0.446392 -0.857952 -0.046040 0.571466 -0.817724 0.068948
0.619482 -0.721504 0.069705 0.721440 -0.661482 0.204858
0.763987 -0.525049 0.195154 0.721440 -0.661482 0.204858
0.569247 -0.691709 0.342821 0.721440 -0.661482 0.204858
0.832129 -0.283733 0.306222 0.942510 -0.316078 0.108492
0.763987 -0.525049 0.195154 0.942510 -0.316078 0.108492
0.858742 -0.299649 0.028657 0.942510 -0.316078 0.108492
0.858742 -0.299649 0.028657 0.990811 -0.134498 -0.014273
0.890447 -0.049651 -0.126265 0.990811 -0.134498 -0.014273
0.894397 -0.049651 0.147958 0.990811 -0.134498 -0.014273
0.876689 -0.216316 0.158974 0.971122 -0.088539 0.221547
0.894397 -0.049651 0.147958 0.971122 -0.088539 0.221547
0.839026 -0.049651 0.390668 0.971122 -0.088539 0.221547
0.858742 -0.299649 0.028657 0.908152 -0.416059 -0.046413
0.763987 -0.525049 0.195154 0.908152 -0.416059 -0.046413
0.743351 -0.537202 -0.099689 0.908152 -0.416059 -0.046413
0.743351 -0.537202 -0.099689 0.866988 -0.416061 -0.274271
0.659520 -0.525050 -0.383116 0.866988 -0.416061 -0.274271
0.806541 -0.299649 -0.260300 0.866988 -0.416061 -0.274271
0.806541 -0.299649 -0.260300 0.957982 -0.228735 -0.173063
0.890447 -0.049651 -0.126265 0.957982 -0.228735 -0.173063
0.858742 -0.299649 0.028657 0.957982 -0.228735 -0.173063
0.806541 -0.299649 -0.260300 0.844973 -0.316079 -0.431411
0.659520 -0.525050 -0.383116 0.844973 -0.316079 -0.431411
0.684492 -0.283734 -0.511009 0.844973 -0.316079 -0.431411
0.777756 -0.216317 -0.388660 0.819502 -0.114719 -0.561476
0.684492 -0.283734 -0.511009 0.819502 -0.114719 -0.561476
0.661405 -0.049651 -0.592533 0.819502 -0.114719 -0.561476
0.798199 -0.049651 -0.384537 0.933176 -0.134498 -0.333305
0.890447 -0.049651 -0.126265 0.933176 -0.134498 -0.333305
0.806541 -0.299649 -0.260300 0.933176 -0.134498 -0.333305
0.500508 0.095019 -0.715647 0.531210 0.329849 -0.780395
0.285866 0.244160 -0.798715 0.531210 0.329849 -0.780395
0.488610 0.354854 -0.613921 0.531210 0.329849 -0.780395
0.488610 0.354854 -0.613921 0.673926 0.399206 -0.621658
0.659520 0.425748 -0.383116 0.673926 0.399206 -0.621658
0.684492 0.184432 -0.511009 0.673926 0.399206 -0.621658
0.565802 0.220019 -0.624408 0.706904 0.169441 -0.686714
0.684492 0.184432 -0.511009 0.706904 0.169441 -0.686714
0.661405 -0.049651 -0.592533 0.706904 0.169441 -0.686714
0.488610 0.354854 -0.613921 0.428869 0.485875 -0.761575
0.285866 0.244160 -0.798715 0.428869 0.485875 -0.761575
0.238707 0.501671 -0.660983 0.428869 0.485875 -0.761575
0.238707 0.501671 -0.660983 0.379040 0.673199 -0.634927
0.159405 0.719564 -0.477298 0.379040 0.673199 -0.634927
0.425419 0.592410 -0.453311 0.379040 0.673199 -0.634927
0.425419 0.592410 -0.453311 0.576099 0.557427 -0.597817
0.659520 0.425748 -0.383116 0.576099 0.557427 -0.597817
0.488610 0.354854 -0.613921 0.576099 0.557427 -0.597817
0.425419 0.592410 -0.453311 0.413141 0.773708 -0.480302
0.159405 0.719564 -0.477298 0.413141 0.773708 -0.480302
0.321790 0.766876 -0.261406 0.413141 0.773708 -0.480302
0.446042 0.670237 -0.320016 0.511220 0.817726 -0.264536
0.321790 0.766876 -0.261406 0.511220 0.817726 -0.264536
0.446392 0.758650 -0.046040 0.511220 0.817726 -0.264536
0.568043 0.622202 -0.215032 0.604158 0.661486 -0.444329
0.659520 0.425748 -0.383116 0.604158 0.661486 -0.444329
0.425419 0.592410 -0.453311 0.604158 0.661486 -0.444329
0.221037 0.856288 -0.005330 0.183427 0.977565 0.103543
-0.045212 0.901152 0.042766 0.183427 0.977565 0.103543
0.143713 0.842409 0.262685 0.183427 0.977565 0.103543
0.143713 0.842409 0.262685 0.326143 0.908207 0.262281
0.328443 0.719561 0.458365 0.326143 0.908207 0.262281
0.405022 0.766874 0.199308 0.326143 0.908207 0.262281
0.258237 0.836902 0.157315 0.420758 0.906265 0.040569
0.405022 0.766874 0.199308 0.420758 0.906265 0.040569
0.446392 0.758650 -0.046040 0.420758 0.906265 0.040569
0.143713 0.842409 0.262685 0.040668 0.973488 0.225094
-0.045212 0.901152 0.042766 0.040668 0.973488 0.225094
-0.145246 0.842411 0.314884 0.040668 0.973488 0.225094
-0.145246 0.842411 0.314884 -0.039960 0.901936 0.430017
-0.249830 0.719564 0.562829 -0.039960 0.901936 0.430017
0.041467 0.751671 0.522556 -0.039960 0.901936 0.430017
0.041467 0.751671 0.522556 0.187898 0.901935 0.388853
0.328443 0.719561 0.458365 0.187898 0.901935 0.388853
0.143713 0.842409 0.262685 0.187898 0.901935 0.388853
0.041467 0.751671 0.522556 -0.007614 0.808023 0.589101
-0.249830 0.719564 0.562829 -0.007614 0.808023 0.589101
-0.068136 0.599660 0.729641 -0.007614 0.808023 0.589101
0.064460 0.664933 0.649826 0.116847 0.664820 0.737808
-0.068136 0.599660 0.729641 0.116847 0.664820 0.737808
0.098491 0.449903 0.838195 0.116847 0.664820 0.737808
0.216602 0.599658 0.678203 0.213256 0.808023 0.549200
0.328443 0.719561 0.458365 0.213256 0.808023 0.549200
0.041467 0.751671 0.522556 0.213256 0.808023 0.549200
-0.130404 0.365574 0.887904 -0.149584 0.274320 0.949933
-0.376291 0.244160 0.884247 -0.149584 0.274320 0.949933
-0.132637 0.097164 0.965064 -0.149584 0.274320 0.949933
-0.132637 0.097164 0.965064 0.041435 0.162096 0.985905
0.123826 -0.049651 0.978424 0.041435 0.162096 0.985905
0.115850 0.220903 0.934276 0.041435 0.162096 0.985905
-0.051610 0.228595 0.944830 0.075764 0.390661 0.917412
0.115850 0.220903 0.934276 0.075764 0.390661 0.917412
0.098491 0.449903 0.838195 0.075764 0.390661 0.917412
-0.132637 0.097164 0.965064 -0.249084 0.115774 0.961537
-0.376291 0.244160 0.884247 -0.249084 0.115774 0.961537
-0.382541 -0.049651 0.918004 -0.249084 0.115774 0.961537
-0.382541 -0.049651 0.918004 -0.249084 -0.115774 0.961537
-0.376291 -0.343462 0.884247 -0.249084 -0.115774 0.961537
-0.132637 -0.196466 0.965064 -0.249084 -0.115774 0.961537
-0.132637 -0.196466 0.965064 -0.052023 0.000000 0.998646
0.123826 -0.049651 0.978424 -0.052023 0.000000 0.998646
-0.132637 0.097164 0.965064 -0.052023 0.000000 0.998646
-0.132637 -0.196466 0.965064 -0.149584 -0.274320 0.949933
-0.376291 -0.343462 0.884247 -0.149584 -0.274320 0.949933
-0.130404 -0.464877 0.887904 -0.149584 -0.274320 0.949933
-0.051610 -0.327897 0.944830 0.048222 -0.406842 0.912225
-0.130404 -0.464877 0.887904 0.048222 -0.406842 0.912225
0.098491 -0.549205 0.838195 0.048222 -0.406842 0.912225
0.115850 -0.320205 0.934276 0.041435 -0.162096 0.985905
0.123826 -0.049651 0.978424 0.041435 -0.162096 0.985905
-0.132637 -0.196466 0.965064 0.041435 -0.162096 0.985905
-0.068136 -0.698962 0.729641 -0.007614 -0.808023 0.589101
-0.249830 -0.818867 0.562829 -0.007614 -0.808023 0.589101
0.041467 -0.850973 0.522556 -0.007614 -0.808023 0.589101
0.041467 -0.850973 0.522556 0.213256 -0.808023 0.549200
0.328443 -0.818863 0.458365 0.213256 -0.808023 0.549200
0.216602 -0.698961 0.678203 0.213256 -0.808023 0.549200
0.064460 -0.764236 0.649826 0.148693 -0.664820 0.732055
0.216602 -0.698961 0.678203 0.148693 -0.664820 0.732055
0.098491 -0.549205 0.838195 0.148693 -0.664820 0.732055
0.041467 -0.850973 0.522556 -0.039960 -0.901936 0.430017
-0.249830 -0.818867 0.562829 -0.039960 -0.901936 0.430017
-0.145246 -0.941713 0.314884 -0.039960 -0.901936 0.430017
-0.145246 -0.941713 0.314884 0.040668 -0.973488 0.225094
-0.045212 -1.000455 0.042766 0.040668 -0.973488 0.225094
0.143713 -0.941712 0.262685 0.040668 -0.973488 0.225094
0.143713 -0.941712 0.262685 0.187898 -0.901935 0.388854
0.328443 -0.818863 0.458365 0.187898 -0.901935 0.388854
0.041467 -0.850973 0.522556 0.187898 -0.901935 0.388854
0.143713 -0.941712 0.262685 0.183427 -0.977565 0.103543
-0.045212 -1.000455 0.042766 0.183427 -0.977565 0.103543
0.221037 -0.955591 -0.005330 0.183427 -0.977565 0.103543
0.258237 -0.936205 0.157315 0.400181 -0.916265 0.017682
0.221037 -0.955591 -0.005330 0.400181 -0.916265 0.017682
0.446392 -0.857952 -0.046040 0.400181 -0.916265 0.017682
0.405022 -0.866176 0.199308 0.326143 -0.908206 0.262281
0.328443 -0.818863 0.458365 0.326143 -0.908206 0.262281
0.143713 -0.941712 0.262685 0.326143 -0.908206 0.262281
0.321790 -0.866178 -0.261406 0.413141 -0.773708 -0.480302
0.159405 -0.818867 -0.477298 0.413141 -0.773708 -0.480302
0.425419 -0.691712 -0.453311 0.413141 -0.773708 -0.480302
0.425419 -0.691712 -0.453311 0.604159 -0.661486 -0.444329
0.659520 -0.525050 -0.383116 0.604159 -0.661486 -0.444329
0.568043 -0.721505 -0.215032 0.604159 -0.661486 -0.444329
0.446042 -0.769539 -0.320016 0.538761 -0.801545 -0.259350
0.568043 -0.721505 -0.215032 0.538761 -0.801545 -0.259350
0.446392 -0.857952 -0.046040 0.538761 -0.801545 -0.259350
0.425419 -0.691712 -0.453311 0.379040 -0.673198 -0.634927
0.159405 -0.818867 -0.477298 0.379040 -0.673198 -0.634927
0.238707 -0.600974 -0.660983 0.379040 -0.673198 -0.634927
0.238707 -0.600974 -0.660983 0.428869 -0.485875 -0.761575
0.285866 -0.343462 -0.798715 0.428869 -0.485875 -0.761575
0.488610 -0.454157 -0.613921 0.428869 -0.485875 -0.761575
0.488610 -0.454157 -0.613921 0.576100 -0.557426 -0.597817
0.659520 -0.525050 -0.383116 0.576100 -0.557426 -0.597817
0.425419 -0.691712 -0.453311 0.576100 -0.557426 -0.597817
0.488610 -0.454157 -0.613921 0.531210 -0.329849 -0.780395
0.285866 -0.343462 -0.798715 0.531210 -0.329849 -0.780395
0.500508 -0.194322 -0.715647 0.531210 -0.329849 -0.780395
0.565802 -0.319321 -0.624408 0.686328 -0.159441 -0.709601
0.500508 -0.194322 -0.715647 0.686328 -0.159441 -0.709601
0.661405 -0.049651 -0.592533 0.686328 -0.159441 -0.709601
0.684492 -0.283734 -0.511009 0.673926 -0.399206 -0.621658
0.659520 -0.525050 -0.383116 0.673926 -0.399206 -0.621658
0.488610 -0.454157 -0.613921 0.673926 -0.399206 -0.621658
0.321790 0.766876 -0.261406 0.213763 0.908207 -0.359813
0.159405 0.719564 -0.477298 0.213763 0.908207 -0.359813
0.054821 0.842411 -0.229353 0.213763 0.908207 -0.359813
0.054821 0.842411 -0.229353 0.135608 0.977565 -0.161173
-0.045212 0.901152 0.042766 0.135608 0.977565 -0.161173
0.221037 0.856288 -0.005330 0.135608 0.977565 -0.161173
0.198976 0.836904 -0.170711 0.368702 0.916265 -0.156579
0.221037 0.856288 -0.005330 0.368702 0.916265 -0.156579
0.446392 0.758650 -0.046040 0.368702 0.916265 -0.156579
0.054821 0.842411 -0.229353 0.039959 0.901936 -0.430017
0.159405 0.719564 -0.477298 0.039959 0.901936 -0.430017
-0.131892 0.751671 -0.437025 0.039959 0.901936 -0.430017
-0.131892 0.751671 -0.437025 -0.187898 0.901935 -0.388854
-0.418867 0.719561 -0.372834 -0.187898 0.901935 -0.388854
-0.234137 0.842409 -0.177154 -0.187898 0.901935 -0.388854
-0.234137 0.842409 -0.177154 -0.040668 0.973488 -0.225094
-0.045212 0.901152 0.042766 -0.040668 0.973488 -0.225094
0.054821 0.842411 -0.229353 -0.040668 0.973488 -0.225094
-0.234137 0.842409 -0.177154 -0.326143 0.908206 -0.262281
-0.418867 0.719561 -0.372834 -0.326143 0.908206 -0.262281
-0.495447 0.766874 -0.113777 -0.326143 0.908206 -0.262281
-0.348662 0.836902 -0.071783 -0.420758 0.906265 -0.040569
-0.495447 0.766874 -0.113777 -0.420758 0.906265 -0.040569
-0.536817 0.758650 0.131571 -0.420758 0.906265 -0.040569
-0.311462 0.856288 0.090862 -0.183427 0.977565 -0.103543
-0.045212 0.901152 0.042766 -0.183427 0.977565 -0.103543
-0.234137 0.842409 -0.177154 -0.183427 0.977565 -0.103543
-0.068136 0.599660 0.729641 -0.206993 0.673524 0.709591
-0.249830 0.719564 0.562829 -0.206993 0.673524 0.709591
-0.329132 0.501671 0.746514 -0.206993 0.673524 0.709591
-0.329132 0.501671 0.746514 -0.255294 0.491945 0.832355
-0.376291 0.244160 0.884247 -0.255294 0.491945 0.832355
-0.130404 0.365574 0.887904 -0.255294 0.491945 0.832355
-0.182606 0.498267 0.799131 -0.021366 0.550101 0.834824
-0.130404 0.365574 0.887904 -0.021366 0.550101 0.834824
0.098491 0.449903 0.838195 -0.021366 0.550101 0.834824
-0.329132 0.501671 0.746514 -0.379040 0.673199 0.634927
-0.249830 0.719564 0.562829 -0.379040 0.673199 0.634927
-0.515844 0.592410 0.538843 -0.379040 0.673199 0.634927
-0.515844 0.592410 0.538843 -0.576100 0.557427 0.597817
-0.749945 0.425748 0.468648 -0.576100 0.557427 0.597817
-0.579035 0.354854 0.699453 -0.576100 0.557427 0.597817
-0.579035 0.354854 0.699453 -0.428869 0.485875 0.761575
-0.376291 0.244160 0.884247 -0.428869 0.485875 0.761575
-0.329132 0.501671 0.746514 -0.428869 0.485875 0.761575
-0.579035 0.354854 0.699453 -0.673926 0.399206 0.621658
-0.749945 0.425748 0.468648 -0.673926 0.399206 0.621658
-0.774917 0.184432 0.596541 -0.673926 0.399206 0.621658
-0.656227 0.220019 0.709939 -0.706904 0.169441 0.686714
-0.774917 0.184432 0.596541 -0.706904 0.169441 0.686714
-0.751830 -0.049651 0.678065 -0.706904 0.169441 0.686714
-0.590933 0.095019 0.801179 -0.531210 0.329848 0.780395
-0.376291 0.244160 0.884247 -0.531210 0.329848 0.780395
-0.579035 0.354854 0.699453 -0.531210 0.329848 0.780395
-0.130404 -0.464877 0.887904 -0.255294 -0.491945 0.832355
-0.376291 -0.343462 0.884247 -0.255294 -0.491945 0.832355
-0.329132 -0.600974 0.746514 -0.255294 -0.491945 0.832355
-0.329132 -0.600974 0.746514 -0.206993 -0.673524 0.709591
-0.249830 -0.818867 0.562829 -0.206993 -0.673524 0.709591
-0.068136 -0.698962 0.729641 -0.206993 -0.673524 0.709591
-0.182606 -0.597569 0.799131 -0.014402 -0.576281 0.817125
-0.068136 -0.698962 0.729641 -0.014402 -0.576281 0.817125
0.098491 -0.549205 0.838195 -0.014402 -0.576281 0.817125
-0.329132 -0.600974 0.746514 -0.428869 -0.485875 0.761575
-0.376291 -0.343462 0.884247 -0.428869 -0.485875 0.761575
-0.579035 -0.454156 0.699453 -0.428869 -0.485875 0.761575
-0.579035 -0.454156 0.699453 -0.576100 -0.557427 0.597817
-0.749945 -0.525050 0.468648 -0.576100 -0.557427 0.597817
-0.515844 -0.691712 0.538843 -0.576100 -0.557427 0.597817
-0.515844 -0.691712 0.538843 -0.379040 -0.673199 0.634927
-0.249830 -0.818867 0.562829 -0.379040 -0.673199 0.634927
-0.329132 -0.600974 0.746514 -0.379040 -0.673199 0.634927
-0.515844 -0.691712 0.538843 -0.604159 -0.661486 0.444329
-0.749945 -0.525050 0.468648 -0.604159 -0.661486 0.444329
-0.658467 -0.721505 0.300563 -0.604159 -0.661486 0.444329
-0.536467 -0.769539 0.405548 -0.538761 -0.801545 0.259350
-0.658467 -0.721505 0.300563 -0.538761 -0.801545 0.259350
-0.536817 -0.857952 0.131571 -0.538761 -0.801545 0.259350
-0.412214 -0.866178 0.346938 -0.413141 -0.773708 0.480302
-0.249830 -0.818867 0.562829 -0.413141 -0.773708 0.480302
-0.515844 -0.691712 0.538843 -0.413141 -0.773708 0.480302
0.221037 -0.955591 -0.005330 0.135608 -0.977565 -0.161173
-0.045212 -1.000455 0.042766 0.135608 -0.977565 -0.161173
0.054821 -0.941713 -0.229353 0.135608 -0.977565 -0.161173
0.054821 -0.941713 -0.229353 0.213763 -0.908207 -0.359813
0.159405 -0.818867 -0.477298 0.213763 -0.908207 -0.359813
0.321790 -0.866178 -0.261406 0.213763 -0.908207 -0.359813
0.198976 -0.936207 -0.170711 0.379971 -0.906265 -0.185219
0.321790 -0.866178 -0.261406 0.379971 -0.906265 -0.185219
0.446392 -0.857952 -0.046040 0.379971 -0.906265 -0.185219
0.054821 -0.941713 -0.229353 -0.040668 -0.973488 -0.225094
-0.045212 -1.000455 0.042766 -0.040668 -0.973488 -0.225094
-0.234137 -0.941711 -0.177154 -0.040668 -0.973488 -0.225094
-0.234137 -0.941711 -0.177154 -0.187898 -0.901935 -0.388853
-0.418867 -0.818863 -0.372834 -0.187898 -0.901935 -0.388853
-0.131892 -0.850973 -0.437025 -0.187898 -0.901935 -0.388853
-0.131892 -0.850973 -0.437025 0.039959 -0.901936 -0.430017
0.159405 -0.818867 -0.477298 0.039959 -0.901936 -0.430017
0.054821 -0.941713 -0.229353 0.039959 -0.901936 -0.430017
-0.131892 -0.850973 -0.437025 -0.213256 -0.808023 -0.549200
-0.418867 -0.818863 -0.372834 -0.213256 -0.808023 -0.549200
-0.307027 -0.698961 -0.592671 -0.213256 -0.808023 -0.549200
-0.154885 -0.764236 -0.564294 -0.148693 -0.664820 -0.732055
-0.307027 -0.698961 -0.592671 -0.148693 -0.664820 -0.732055
-0.188916 -0.549205 -0.752663 -0.148693 -0.664820 -0.732055
-0.022289 -0.698962 -0.644109 0.007614 -0.808023 -0.589102
0.159405 -0.818867 -0.477298 0.007614 -0.808023 -0.589102
-0.131892 -0.850973 -0.437025 0.007614 -0.808023 -0.589102
0.500508 -0.194322 -0.715647 0.425500 -0.112224 -0.897973
0.285866 -0.343462 -0.798715 0.425500 -0.112224 -0.897973
0.292116 -0.049651 -0.832472 0.425500 -0.112224 -0.897973
0.292116 -0.049651 -0.832472 0.425500 0.112224 -0.897973
0.285866 0.244160 -0.798715 0.425500 0.112224 -0.897973
0.500508 0.095019 -0.715647 0.425500 0.112224 -0.897973
0.434806 -0.049651 -0.770109 0.616740 0.016180 -0.787001
0.500508 0.095019 -0.715647 0.616740 0.016180 -0.787001
0.661405 -0.049651 -0.592533 0.616740 0.016180 -0.787001
0.292116 -0.049651 -0.832472 0.249084 -0.115774 -0.961537
0.285866 -0.343462 -0.798715 0.249084 -0.115774 -0.961537
0.042213 -0.196466 -0.879532 0.249084 -0.115774 -0.961537
0.042213 -0.196466 -0.879532 0.052023 0.000000 -0.998646
-0.214250 -0.049651 -0.892892 0.052023 0.000000 -0.998646
0.042213 0.097164 -0.879532 0.052023 0.000000 -0.998646
0.042213 0.097164 -0.879532 0.249084 0.115774 -0.961537
0.285866 0.244160 -0.798715 0.249084 0.115774 -0.961537
0.292116 -0.049651 -0.832472 0.249084 0.115774 -0.961537
0.042213 0.097164 -0.879532 -0.041435 0.162096 -0.985905
-0.214250 -0.049651 -0.892892 -0.041435 0.162096 -0.985905
-0.206275 0.220903 -0.848744 -0.041435 0.162096 -0.985905
-0.038815 0.228595 -0.859299 -0.075764 0.390661 -0.917412
-0.206275 0.220903 -0.848744 -0.075764 0.390661 -0.917412
-0.188916 0.449903 -0.752663 -0.075764 0.390661 -0.917412
0.039979 0.365574 -0.802372 0.149584 0.274320 -0.949933
0.285866 0.244160 -0.798715 0.149584 0.274320 -0.949933
0.042213 0.097164 -0.879532 0.149584 0.274320 -0.949933
-0.420735 0.365573 -0.719141 -0.530397 0.491941 -0.690415
-0.649796 0.244159 -0.629681 -0.530397 0.491941 -0.690415
-0.557427 0.501669 -0.517158 -0.530397 0.491941 -0.690415
-0.557427 0.501669 -0.517158 -0.442194 0.673522 -0.592312
-0.418867 0.719561 -0.372834 -0.442194 0.673522 -0.592312
-0.307027 0.599658 -0.592671 -0.442194 0.673522 -0.592312
-0.438575 0.498265 -0.617716 -0.299402 0.576278 -0.760435
-0.307027 0.599658 -0.592671 -0.299402 0.576278 -0.760435
-0.188916 0.449903 -0.752663 -0.299402 0.576278 -0.760435
-0.557427 0.501669 -0.517158 -0.668231 0.485872 -0.563379
-0.649796 0.244159 -0.629681 -0.668231 0.485872 -0.563379
-0.775064 0.354853 -0.385634 -0.668231 0.485872 -0.563379
-0.775064 0.354853 -0.385634 -0.748858 0.557423 -0.358457
-0.854412 0.425747 -0.109622 -0.748858 0.557423 -0.358457
-0.659672 0.592407 -0.257290 -0.748858 0.557423 -0.358457
-0.659672 0.592407 -0.257290 -0.577236 0.673197 -0.462173
-0.418867 0.719561 -0.372834 -0.577236 0.673197 -0.462173
-0.557427 0.501669 -0.517158 -0.577236 0.673197 -0.462173
-0.659672 0.592407 -0.257290 -0.721440 0.661482 -0.204857
-0.854412 0.425747 -0.109622 -0.721440 0.661482 -0.204857
-0.709907 0.622201 0.015827 -0.721440 0.661482 -0.204857
-0.632352 0.670234 -0.125208 -0.595451 0.801544 -0.054454
-0.709907 0.622201 0.015827 -0.595451 0.801544 -0.054454
-0.536817 0.758650 0.131571 -0.595451 0.801544 -0.054454
-0.495447 0.766874 -0.113777 -0.555081 0.773705 -0.305393
-0.418867 0.719561 -0.372834 -0.555081 0.773705 -0.305393
-0.659672 0.592407 -0.257290 -0.555081 0.773705 -0.305393
-0.709907 0.622201 0.015827 -0.815107 0.578358 0.033211
-0.854412 0.425747 -0.109622 -0.815107 0.578358 0.033211
-0.833776 0.437900 0.185220 -0.815107 0.578358 0.033211
-0.833776 0.437900 0.185220 -0.775205 0.578359 0.254082
-0.749945 0.425748 0.468648 -0.775205 0.578359 0.254082
-0.658468 0.622202 0.300563 -0.775205 0.578359 0.254082
-0.748421 0.567229 0.169799 -0.651359 0.746824 0.134111
-0.658468 0.622202 0.300563 -0.651359 0.746824 0.134111
-0.536817 0.758650 0.131571 -0.651359 0.746824 0.134111
-0.833776 0.437900 0.185220 -0.908152 0.416059 0.046413
-0.854412 0.425747 -0.109622 -0.908152 0.416059 0.046413
-0.949167 0.200347 0.056875 -0.908152 0.416059 0.046413
-0.949167 0.200347 0.056875 -0.957982 0.228735 0.173063
-0.980871 -0.049651 0.211797 -0.957982 0.228735 0.173063
-0.896966 0.200347 0.345831 -0.957982 0.228735 0.173063
-0.896966 0.200347 0.345831 -0.866988 0.416061 0.274271
-0.749945 0.425748 0.468648 -0.866988 0.416061 0.274271
-0.833776 0.437900 0.185220 -0.866988 0.416061 0.274271
-0.896966 0.200347 0.345831 -0.933176 0.134498 0.333305
-0.980871 -0.049651 0.211797 -0.933176 0.134498 0.333305
-0.888624 -0.049651 0.470069 -0.933176 0.134498 0.333305
-0.868181 0.117015 0.474192 -0.832219 0.088539 0.547332
-0.888624 -0.049651 0.470069 -0.832219 0.088539 0.547332
-0.751830 -0.049651 0.678065 -0.832219 0.088539 0.547332
-0.774917 0.184432 0.596541 -0.844973 0.316079 0.431410
-0.749945 0.425748 0.468648 -0.844973 0.316079 0.431410
-0.896966 0.200347 0.345831 -0.844973 0.316079 0.431410
-0.888624 -0.049651 0.470069 -0.933176 -0.134498 0.333305
-0.980871 -0.049651 0.211797 -0.933176 -0.134498 0.333305
-0.896966 -0.299649 0.345831 -0.933176 -0.134498 0.333305
-0.896966 -0.299649 0.345831 -0.844973 -0.316079 0.431410
-0.749945 -0.525050 0.468648 -0.844973 -0.316079 0.431410
-0.774917 -0.283734 0.596541 -0.844973 -0.316079 0.431410
-0.868181 -0.216317 0.474192 -0.819502 -0.114719 0.561476
-0.774917 -0.283734 0.596541 -0.819502 -0.114719 0.561476
-0.751830 -0.049651 0.678065 -0.819502 -0.114719 0.561476
-0.896966 -0.299649 0.345831 -0.957982 -0.228735 0.173063
-0.980871 -0.049651 0.211797 -0.957982 -0.228735 0.173063
-0.949167 -0.299649 0.056875 -0.957982 -0.228735 0.173063
-0.949167 -0.299649 0.056875 -0.908152 -0.416059 0.046413
-0.854412 -0.525049 -0.109622 -0.908152 -0.416059 0.046413
-0.833776 -0.537202 0.185220 -0.908152 -0.416059 0.046413
-0.833776 -0.537202 0.185220 -0.866988 -0.416061 0.274271
-0.749945 -0.525050 0.468648 -0.866988 -0.416061 0.274271
-0.896966 -0.299649 0.345831 -0.866988 -0.416061 0.274271
-0.833776 -0.537202 0.185220 -0.815107 -0.578358 0.033211
-0.854412 -0.525049 -0.109622 -0.815107 -0.578358 0.033211
-0.709907 -0.721504 0.015827 -0.815107 -0.578358 0.033211
-0.748421 -0.666532 0.169799 -0.657112 -0.746823 0.102266
-0.709907 -0.721504 0.015827 -0.657112 -0.746823 0.102266
-0.536817 -0.857952 0.131571 -0.657112 -0.746823 0.102266
-0.658467 -0.721505 0.300563 -0.775205 -0.578359 0.254082
-0.749945 -0.525050 0.468648 -0.775205 -0.578359 0.254082
-0.833776 -0.537202 0.185220 -0.775205 -0.578359 0.254082
-0.206275 0.220903 -0.848744 -0.306151 0.162097 -0.938081
-0.214250 -0.049651 -0.892892 -0.306151 0.162097 -0.938081
-0.449825 0.097163 -0.790641 -0.306151 0.162097 -0.938081
-0.449825 0.097163 -0.790641 -0.472509 0.274319 -0.837547
-0.649796 0.244159 -0.629681 -0.472509 0.274319 -0.837547
-0.420735 0.365573 -0.719141 -0.472509 0.274319 -0.837547
-0.366840 0.228594 -0.800038 -0.274011 0.406841 -0.871435
-0.420735 0.365573 -0.719141 -0.274011 0.406841 -0.871435
-0.188916 0.449903 -0.752663 -0.274011 0.406841 -0.871435
-0.449825 0.097163 -0.790641 -0.398160 0.000000 -0.917316
-0.214250 -0.049651 -0.892892 -0.398160 0.000000 -0.917316
-0.449825 -0.196465 -0.790641 -0.398160 0.000000 -0.917316
-0.449825 -0.196465 -0.790641 -0.569780 -0.115772 -0.813601
-0.649796 -0.343461 -0.629681 -0.569780 -0.115772 -0.813601
-0.667463 -0.049651 -0.659116 -0.569780 -0.115772 -0.813601
-0.667463 -0.049651 -0.659116 -0.569780 0.115772 -0.813601
-0.649796 0.244159 -0.629681 -0.569780 0.115772 -0.813601
-0.449825 0.097163 -0.790641 -0.569780 0.115772 -0.813601
-0.667463 -0.049651 -0.659116 -0.712800 -0.112222 -0.692331
-0.649796 -0.343461 -0.629681 -0.712800 -0.112222 -0.692331
-0.821803 -0.194321 -0.476763 -0.712800 -0.112222 -0.692331
-0.779311 -0.049651 -0.550770 -0.853122 -0.016179 -0.521460
-0.821803 -0.194321 -0.476763 -0.853122 -0.016179 -0.521460
-0.929451 -0.049651 -0.305136 -0.853122 -0.016179 -0.521460
-0.821803 0.095019 -0.476763 -0.712800 0.112222 -0.692331
-0.649796 0.244159 -0.629681 -0.712800 0.112222 -0.692331
-0.667463 -0.049651 -0.659116 -0.712800 0.112222 -0.692331
-0.709907 -0.721504 0.015827 -0.721440 -0.661482 -0.204857
-0.854412 -0.525049 -0.109622 -0.721440 -0.661482 -0.204857
-0.659672 -0.691709 -0.257290 -0.721440 -0.661482 -0.204857
-0.659672 -0.691709 -0.257290 -0.555081 -0.773705 -0.305393
-0.418867 -0.818863 -0.372834 -0.555081 -0.773705 -0.305393
-0.495447 -0.866176 -0.113777 -0.555081 -0.773705 -0.305393
-0.632352 -0.769536 -0.125208 -0.571466 -0.817724 -0.068948
-0.495447 -0.866176 -0.113777 -0.571466 -0.817724 -0.068948
-0.536817 -0.857952 0.131571 -0.571466 -0.817724 -0.068948
-0.659672 -0.691709 -0.257290 -0.748858 -0.557423 -0.358457
-0.854412 -0.525049 -0.109622 -0.748858 -0.557423 -0.358457
-0.775064 -0.454155 -0.385634 -0.748858 -0.557423 -0.358457
-0.775064 -0.454155 -0.385634 -0.668231 -0.485872 -0.563379
-0.649796 -0.343461 -0.629681 -0.668231 -0.485872 -0.563379
-0.557427 -0.600971 -0.517158 -0.668231 -0.485872 -0.563379
-0.557427 -0.600971 -0.517158 -0.577236 -0.673197 -0.462173
-0.418867 -0.818863 -0.372834 -0.577236 -0.673197 -0.462173
-0.659672 -0.691709 -0.257290 -0.577236 -0.673197 -0.462173
-0.557427 -0.600971 -0.517158 -0.530397 -0.491941 -0.690415
-0.649796 -0.343461 -0.629681 -0.530397 -0.491941 -0.690415
-0.420735 -0.464876 -0.719141 -0.530397 -0.491941 -0.690415
-0.438575 -0.597567 -0.617716 -0.312119 -0.550099 -0.774580
-0.420735 -0.464876 -0.719141 -0.312119 -0.550099 -0.774580
-0.188916 -0.549205 -0.752663 -0.312119 -0.550099 -0.774580
-0.307027 -0.698961 -0.592671 -0.442194 -0.673522 -0.592312
-0.418867 -0.818863 -0.372834 -0.442194 -0.673522 -0.592312
-0.557427 -0.600971 -0.517158 -0.442194 -0.673522 -0.592312
-0.821803 -0.194321 -0.476763 -0.891230 -0.159438 -0.424605
-0.851045 -0.319320 -0.368448 -0.891230 -0.159438 -0.424605
-0.929451 -0.049651 -0.305136 -0.891230 -0.159438 -0.424605
-0.851045 -0.319320 -0.368448 -0.733947 -0.338536 -0.588826
-0.821803 -0.194321 -0.476763 -0.733947 -0.338536 -0.588826
-0.775064 -0.454155 -0.385634 -0.733947 -0.338536 -0.588826
-0.851045 -0.319320 -0.368448 -0.846029 -0.438004 -0.303954
-0.775064 -0.454155 -0.385634 -0.846029 -0.438004 -0.303954
-0.922554 -0.283733 -0.220690 -0.846029 -0.438004 -0.303954
-0.420735 -0.464876 -0.719141 -0.274011 -0.406841 -0.871435
-0.366840 -0.327897 -0.800038 -0.274011 -0.406841 -0.871435
-0.188916 -0.549205 -0.752663 -0.274011 -0.406841 -0.871435
-0.366840 -0.327897 -0.800038 -0.522193 -0.271917 -0.808317
-0.420735 -0.464876 -0.719141 -0.522193 -0.271917 -0.808317
-0.449825 -0.196465 -0.790641 -0.522193 -0.271917 -0.808317
-0.366840 -0.327897 -0.800038 -0.283616 -0.110974 -0.952495
-0.449825 -0.196465 -0.790641 -0.283616 -0.110974 -0.952495
-0.206275 -0.320205 -0.848744 -0.283616 -0.110974 -0.952495
-0.922554 -0.283733 -0.220690 -0.964158 -0.114717 -0.239246
-0.967114 -0.216316 -0.073442 -0.964158 -0.114717 -0.239246
-0.929451 -0.049651 -0.305136 -0.964158 -0.114717 -0.239246
-0.967114 -0.216316 -0.073442 -0.922468 -0.370168 -0.109672
-0.922554 -0.283733 -0.220690 -0.922468 -0.370168 -0.109672
-0.949167 -0.299649 0.056875 -0.922468 -0.370168 -0.109672
-0.967114 -0.216316 -0.073442 -0.991739 -0.109761 0.066387
-0.949167 -0.299649 0.056875 -0.991739 -0.109761 0.066387
-0.984822 -0.049651 -0.062426 -0.991739 -0.109761 0.066387
-0.984822 -0.049651 -0.062426 -0.971122 0.088539 -0.221547
-0.967114 0.117014 -0.073442 -0.971122 0.088539 -0.221547
-0.929451 -0.049651 -0.305136 -0.971122 0.088539 -0.221547
-0.967114 0.117014 -0.073442 -0.991738 0.109761 0.066387
-0.984822 -0.049651 -0.062426 -0.991738 0.109761 0.066387
-0.949167 0.200347 0.056875 -0.991738 0.109761 0.066387
-0.967114 0.117014 -0.073442 -0.922468 0.370168 -0.109672
-0.949167 0.200347 0.056875 -0.922468 0.370168 -0.109672
-0.922554 0.184431 -0.220690 -0.922468 0.370168 -0.109672
-0.922554 0.184431 -0.220690 -0.902498 0.169438 -0.395965
-0.851045 0.220018 -0.368448 -0.902498 0.169438 -0.395965
-0.929451 -0.049651 -0.305136 -0.902498 0.169438 -0.395965
-0.851045 0.220018 -0.368448 -0.846029 0.438004 -0.303954
-0.922554 0.184431 -0.220690 -0.846029 0.438004 -0.303954
-0.775064 0.354853 -0.385634 -0.846029 0.438004 -0.303954
-0.851045 0.220018 -0.368448 -0.733947 0.338536 -0.588826
-0.775064 0.354853 -0.385634 -0.733947 0.338536 -0.588826
-0.821803 0.095019 -0.476763 -0.733947 0.338536 -0.588826
-0.206275 -0.320205 -0.848744 -0.075764 -0.390661 -0.917412
-0.038815 -0.327897 -0.859299 -0.075764 -0.390661 -0.917412
-0.188916 -0.549205 -0.752663 -0.075764 -0.390661 -0.917412
-0.038815 -0.327897 -0.859299 -0.067588 -0.110973 -0.991522
-0.206275 -0.320205 -0.848744 -0.067588 -0.110973 -0.991522
0.042213 -0.196466 -0.879532 -0.067588 -0.110973 -0.991522
-0.038815 -0.327897 -0.859299 0.206355 -0.271918 -0.939935
0.042213 -0.196466 -0.879532 0.206355 -0.271918 -0.939935
0.039979 -0.464877 -0.802372 0.206355 -0.271918 -0.939935
-0.495447 -0.866176 -0.113777 -0.420758 -0.906265 -0.040569
-0.348662 -0.936205 -0.071783 -0.420758 -0.906265 -0.040569
-0.536817 -0.857952 0.131571 -0.420758 -0.906265 -0.040569
-0.348662 -0.936205 -0.071783 -0.333395 -0.888274 -0.315938
-0.495447 -0.866176 -0.113777 -0.333395 -0.888274 -0.315938
-0.234137 -0.941711 -0.177154 -0.333395 -0.888274 -0.315938
-0.348662 -0.936205 -0.071783 -0.128725 -0.987743 -0.088288
-0.234137 -0.941711 -0.177154 -0.128725 -0.987743 -0.088288
-0.311462 -0.955591 0.090862 -0.128725 -0.987743 -0.088288
-0.774917 -0.283734 0.596541 -0.706904 -0.169441 0.686714
-0.656227 -0.319321 0.709939 -0.706904 -0.169441 0.686714
-0.751830 -0.049651 0.678065 -0.706904 -0.169441 0.686714
-0.656227 -0.319321 0.709939 -0.686197 -0.438007 0.580760
-0.774917 -0.283734 0.596541 -0.686197 -0.438007 0.580760
-0.579035 -0.454156 0.699453 -0.686197 -0.438007 0.580760
-0.656227 -0.319321 0.709939 -0.481528 -0.338541 0.808407
-0.579035 -0.454156 0.699453 -0.481528 -0.338541 0.808407
-0.590933 -0.194322 0.801179 -0.481528 -0.338541 0.808407
-0.658468 0.622202 0.300563 -0.538760 0.801545 0.259350
-0.536467 0.670236 0.405548 -0.538760 0.801545 0.259350
-0.536817 0.758650 0.131571 -0.538760 0.801545 0.259350
-0.536467 0.670236 0.405548 -0.638435 0.617571 0.459355
-0.658468 0.622202 0.300563 -0.638435 0.617571 0.459355
-0.515844 0.592410 0.538843 -0.638435 0.617571 0.459355
-0.536467 0.670236 0.405548 -0.364491 0.778514 0.510942
-0.515844 0.592410 0.538843 -0.364491 0.778514 0.510942
-0.412214 0.766876 0.346938 -0.364491 0.778514 0.510942
-0.307027 0.599658 -0.592671 -0.148693 0.664820 -0.732055
-0.154885 0.664933 -0.564294 -0.148693 0.664820 -0.732055
-0.188916 0.449903 -0.752663 -0.148693 0.664820 -0.732055
-0.154885 0.664933 -0.564294 -0.256112 0.819686 -0.512369
-0.307027 0.599658 -0.592671 -0.256112 0.819686 -0.512369
-0.131892 0.751671 -0.437025 -0.256112 0.819686 -0.512369
-0.154885 0.664933 -0.564294 0.060644 0.819685 -0.569595
-0.131892 0.751671 -0.437025 0.060644 0.819685 -0.569595
-0.022289 0.599660 -0.644109 0.060644 0.819685 -0.569595
0.039979 -0.464877 -0.802372 0.021366 -0.550101 -0.834824
0.092181 -0.597569 -0.713600 0.021366 -0.550101 -0.834824
-0.188916 -0.549205 -0.752663 0.021366 -0.550101 -0.834824
0.092181 -0.597569 -0.713600 0.292626 -0.449514 -0.843983
0.039979 -0.464877 -0.802372 0.292626 -0.449514 -0.843983
0.238707 -0.600974 -0.660983 0.292626 -0.449514 -0.843983
0.092181 -0.597569 -0.713600 0.223353 -0.709925 -0.667922
0.238707 -0.600974 -0.660983 0.223353 -0.709925 -0.667922
-0.022289 -0.698962 -0.644109 0.223353 -0.709925 -0.667922
-0.311462 -0.955591 0.090862 -0.368702 -0.916265 0.156579
-0.289401 -0.936206 0.256242 -0.368702 -0.916265 0.156579
-0.536817 -0.857952 0.131571 -0.368702 -0.916265 0.156579
-0.289401 -0.936206 0.256242 -0.089695 -0.987744 0.127738
-0.311462 -0.955591 0.090862 -0.089695 -0.987744 0.127738
-0.145246 -0.941713 0.314884 -0.089695 -0.987744 0.127738
-0.289401 -0.936206 0.256242 -0.201783 -0.888274 0.412616
-0.145246 -0.941713 0.314884 -0.201783 -0.888274 0.412616
-0.412214 -0.866178 0.346938 -0.201783 -0.888274 0.412616
-0.590933 -0.194322 0.801179 -0.616740 -0.016180 0.787001
-0.525231 -0.049651 0.855640 -0.616740 -0.016180 0.787001
-0.751830 -0.049651 0.678065 -0.616740 -0.016180 0.787001
-0.525231 -0.049651 0.855640 -0.395256 -0.160946 0.904361
-0.590933 -0.194322 0.801179 -0.395256 -0.160946 0.904361
-0.382541 -0.049651 0.918004 -0.395256 -0.160946 0.904361
-0.525231 -0.049651 0.855640 -0.395256 0.160947 0.904361
-0.382541 -0.049651 0.918004 -0.395256 0.160947 0.904361
-0.590933 0.095019 0.801179 -0.395256 0.160947 0.904361
-0.412214 0.766876 0.346938 -0.379970 0.906265 0.185219
-0.289401 0.836904 0.256242 -0.379970 0.906265 0.185219
-0.536817 0.758650 0.131571 -0.379970 0.906265 0.185219
-0.289401 0.836904 0.256242 -0.201783 0.888274 0.412616
-0.412214 0.766876 0.346938 -0.201783 0.888274 0.412616
-0.145246 0.842411 0.314884 -0.201783 0.888274 0.412616
-0.289401 0.836904 0.256242 -0.089695 0.987744 0.127739
-0.145246 0.842411 0.314884 -0.089695 0.987744 0.127739
-0.311462 0.856288 0.090862 -0.089695 0.987744 0.127739
-0.022289 0.599660 -0.644109 0.014402 0.576281 -0.817125
0.092181 0.498267 -0.713600 0.014402 0.576281 -0.817125
-0.188916 0.449903 -0.752663 0.014402 0.576281 -0.817125
0.092181 0.498267 -0.713600 0.223353 0.709925 -0.667922
-0.022289 0.599660 -0.644109 0.223353 0.709925 -0.667922
0.238707 0.501671 -0.660983 0.223353 0.709925 -0.667922
0.092181 0.498267 -0.713600 0.292626 0.449514 -0.843983
0.238707 0.501671 -0.660983 0.292626 0.449514 -0.843983
0.039979 0.365574 -0.802372 0.292626 0.449514 -0.843983
0.568043 -0.721505 -0.215032 0.651359 -0.746823 -0.134111
0.657996 -0.666532 -0.084268 0.651359 -0.746823 -0.134111
0.446392 -0.857952 -0.046040 0.651359 -0.746823 -0.134111
0.657996 -0.666532 -0.084268 0.778020 -0.549735 -0.304098
0.568043 -0.721505 -0.215032 0.778020 -0.549735 -0.304098
0.743351 -0.537202 -0.099689 0.778020 -0.549735 -0.304098
0.657996 -0.666532 -0.084268 0.835244 -0.549733 0.012658
0.743351 -0.537202 -0.099689 0.835244 -0.549733 0.012658
0.619482 -0.721504 0.069705 0.835244 -0.549733 0.012658
0.216602 -0.698961 0.678203 0.299402 -0.576278 0.760435
0.348150 -0.597567 0.703248 0.299402 -0.576278 0.760435
0.098491 -0.549205 0.838195 0.299402 -0.576278 0.760435
0.348150 -0.597567 0.703248 0.442941 -0.709923 0.547552
0.216602 -0.698961 0.678203 0.442941 -0.709923 0.547552
0.467002 -0.600971 0.602690 0.442941 -0.709923 0.547552
0.348150 -0.597567 0.703248 0.569436 -0.449512 0.688246
0.467002 -0.600971 0.602690 0.569436 -0.449512 0.688246
0.330310 -0.464876 0.804673 0.569436 -0.449512 0.688246
0.115850 0.220903 0.934276 0.250027 0.390661 0.885929
0.276415 0.228594 0.885570 0.250027 0.390661 0.885929
0.098491 0.449903 0.838195 0.250027 0.390661 0.885929
0.276415 0.228594 0.885570 0.283616 0.110974 0.952495
0.115850 0.220903 0.934276 0.283616 0.110974 0.952495
0.359400 0.097163 0.876173 0.283616 0.110974 0.952495
0.276415 0.228594 0.885570 0.522193 0.271917 0.808317
0.359400 0.097163 0.876173 0.522193 0.271917 0.808317
0.330310 0.365573 0.804673 0.522193 0.271917 0.808317
0.405022 0.766874 0.199308 0.571466 0.817724 0.068948
0.541927 0.670234 0.210739 0.571466 0.817724 0.068948
0.446392 0.758650 -0.046040 0.571466 0.817724 0.068948
0.541927 0.670234 0.210739 0.520226 0.778511 0.351120
0.405022 0.766874 0.199308 0.520226 0.778511 0.351120
0.569247 0.592407 0.342822 0.520226 0.778511 0.351120
0.541927 0.670234 0.210739 0.758805 0.617569 0.206939
0.569247 0.592407 0.342822 0.758805 0.617569 0.206939
0.619482 0.622201 0.069705 0.758805 0.617569 0.206939
0.684492 0.184432 -0.511009 0.819502 0.114719 -0.561476
0.777756 0.117015 -0.388660 0.819502 0.114719 -0.561476
0.661405 -0.049651 -0.592533 0.819502 0.114719 -0.561476
0.777756 0.117015 -0.388660 0.825784 0.370173 -0.425503
0.684492 0.184432 -0.511009 0.825784 0.370173 -0.425503
0.806541 0.200347 -0.260300 0.825784 0.370173 -0.425503
0.777756 0.117015 -0.388660 0.952280 0.109759 -0.284807
0.806541 0.200347 -0.260300 0.952280 0.109759 -0.284807
0.798199 -0.049651 -0.384537 0.952280 0.109759 -0.284807
0.876689 0.117014 0.158974 0.991738 0.109761 -0.066387
0.894397 -0.049651 0.147958 0.991738 0.109761 -0.066387
0.858742 0.200347 0.028657 0.991738 0.109761 -0.066387
0.876689 0.117014 0.158974 0.922468 0.370168 0.109672
0.858742 0.200347 0.028657 0.922468 0.370168 0.109672
0.832129 0.184431 0.306222 0.922468 0.370168 0.109672
0.894397 -0.049651 0.147958 0.971122 0.088539 0.221547
0.876689 0.117014 0.158974 0.971122 0.088539 0.221547
0.839026 -0.049651 0.390668 0.971122 0.088539 0.221547
0.813566 0.283680 -0.112375 0.958481 0.226566 -0.173153
0.858742 0.200347 0.028657 0.958481 0.226566 -0.173153
0.806541 0.200347 -0.260300 0.958481 0.226566 -0.173153
0.813566 0.283680 -0.112375 0.865986 0.416984 -0.276031
0.806541 0.200347 -0.260300 0.865986 0.416984 -0.276031
0.743351 0.437900 -0.099689 0.865986 0.416984 -0.276031
0.813566 0.283680 -0.112375 0.907829 0.416983 -0.044414
0.743351 0.437900 -0.099689 0.907829 0.416983 -0.044414
0.858742 0.200347 0.028657 0.907829 0.416983 -0.044414
0.657996 0.567229 -0.084268 0.778020 0.549735 -0.304098
0.743351 0.437900 -0.099689 0.778020 0.549735 -0.304098
0.568043 0.622202 -0.215032 0.778020 0.549735 -0.304098
0.619482 0.622201 0.069705 0.657112 0.746823 -0.102266
0.657996 0.567229 -0.084268 0.657112 0.746823 -0.102266
0.446392 0.758650 -0.046040 0.657112 0.746823 -0.102266
0.657996 0.567229 -0.084268 0.835245 0.549733 0.012658
0.619482 0.622201 0.069705 0.835245 0.549733 0.012658
0.743351 0.437900 -0.099689 0.835245 0.549733 0.012658
0.760620 0.220018 0.453979 0.846029 0.438004 0.303954
0.832129 0.184431 0.306222 0.846029 0.438004 0.303954
0.684639 0.354853 0.471165 0.846029 0.438004 0.303954
0.760620 0.220018 0.453979 0.733947 0.338536 0.588825
0.684639 0.354853 0.471165 0.733947 0.338536 0.588825
0.731378 0.095019 0.562295 0.733947 0.338536 0.588825
0.832129 0.184431 0.306222 0.902498 0.169438 0.395966
0.760620 0.220018 0.453979 0.902498 0.169438 0.395966
0.839026 -0.049651 0.390668 0.902498 0.169438 0.395966
0.581429 0.489688 0.477638 0.750044 0.557007 0.356620
0.684639 0.354853 0.471165 0.750044 0.557007 0.356620
0.569247 0.592407 0.342822 0.750044 0.557007 0.356620
0.581429 0.489688 0.477638 0.575591 0.674690 0.462047
0.569247 0.592407 0.342822 0.575591 0.674690 0.462047
0.467002 0.501669 0.602690 0.575591 0.674690 0.462047
0.581429 0.489688 0.477638 0.668086 0.484272 0.564925
0.467002 0.501669 0.602690 0.668086 0.484272 0.564925
0.684639 0.354853 0.471165 0.668086 0.484272 0.564925
0.348150 0.498265 0.703248 0.442941 0.709923 0.547552
0.467002 0.501669 0.602690 0.442941 0.709923 0.547552
0.216602 0.599658 0.678203 0.442941 0.709923 0.547552
0.330310 0.365573 0.804673 0.312119 0.550099 0.774580
0.348150 0.498265 0.703248 0.312119 0.550099 0.774580
0.098491 0.449903 0.838195 0.312119 0.550099 0.774580
0.348150 0.498265 0.703248 0.569436 0.449512 0.688246
0.330310 0.365573 0.804673 0.569436 0.449512 0.688246
0.467002 0.501669 0.602690 0.569436 0.449512 0.688246
0.688886 -0.049651 0.636301 0.686705 0.160942 0.708896
0.731378 0.095019 0.562295 0.686705 0.160942 0.708896
0.577038 -0.049651 0.744648 0.686705 0.160942 0.708896
0.688886 -0.049651 0.636301 0.686705 -0.160942 0.708896
0.577038 -0.049651 0.744648 0.686705 -0.160942 0.708896
0.731378 -0.194321 0.562295 0.686705 -0.160942 0.708896
0.731378 0.095019 0.562295 0.853122 0.016179 0.521460
0.688886 -0.049651 0.636301 0.853122 0.016179 0.521460
0.839026 -0.049651 0.390668 0.853122 0.016179 0.521460
0.437960 -0.049651 0.842282 0.570569 0.117684 0.812774
0.577038 -0.049651 0.744648 0.570569 0.117684 0.812774
0.359400 0.097163 0.876173 0.570569 0.117684 0.812774
0.437960 -0.049651 0.842282 0.396120 -0.000000 0.918199
0.359400 0.097163 0.876173 0.396120 -0.000000 0.918199
0.359400 -0.196465 0.876173 0.396120 -0.000000 0.918199
0.437960 -0.049651 0.842282 0.570569 -0.117684 0.812774
0.359400 -0.196465 0.876173 0.570569 -0.117684 0.812774
0.577038 -0.049651 0.744648 0.570569 -0.117684 0.812774
0.276415 -0.327897 0.885570 0.283616 -0.110974 0.952495
0.359400 -0.196465 0.876173 0.283616 -0.110974 0.952495
0.115850 -0.320205 0.934276 0.283616 -0.110974 0.952495
0.330310 -0.464876 0.804673 0.274011 -0.406841 0.871435
0.276415 -0.327897 0.885570 0.274011 -0.406841 0.871435
0.098491 -0.549205 0.838195 0.274011 -0.406841 0.871435
0.276415 -0.327897 0.885570 0.522193 -0.271917 0.808317
0.330310 -0.464876 0.804673 0.522193 -0.271917 0.808317
0.359400 -0.196465 0.876173 0.522193 -0.271917 0.808317
0.760620 -0.319320 0.453979 0.733947 -0.338536 0.588825
0.731378 -0.194321 0.562295 0.733947 -0.338536 0.588825
0.684639 -0.454155 0.471165 0.733947 -0.338536 0.588825
0.760620 -0.319320 0.453979 0.846029 -0.438004 0.303954
0.684639 -0.454155 0.471165 0.846029 -0.438004 0.303954
0.832129 -0.283733 0.306222 0.846029 -0.438004 0.303954
0.731378 -0.194321 0.562295 0.891230 -0.159438 0.424604
0.760620 -0.319320 0.453979 0.891230 -0.159438 0.424604
0.839026 -0.049651 0.390668 0.891230 -0.159438 0.424604
0.581429 -0.588991 0.477638 0.668086 -0.484273 0.564925
0.684639 -0.454155 0.471165 0.668086 -0.484273 0.564925
0.467002 -0.600971 0.602690 0.668086 -0.484273 0.564925
0.581429 -0.588991 0.477638 0.575591 -0.674691 0.462047
0.467002 -0.600971 0.602690 0.575591 -0.674691 0.462047
0.569247 -0.691709 0.342821 0.575591 -0.674691 0.462047
0.581429 -0.588991 0.477638 0.750044 -0.557007 0.356619
0.569247 -0.691709 0.342821 0.750044 -0.557007 0.356619
0.684639 -0.454155 0.471165 0.750044 -0.557007 0.356619
0.541927 -0.769536 0.210739 0.520226 -0.778511 0.351121
0.569247 -0.691709 0.342821 0.520226 -0.778511 0.351121
0.405022 -0.866176 0.199308 0.520226 -0.778511 0.351121
0.619482 -0.721504 0.069705 0.595451 -0.801544 0.054454
0.541927 -0.769536 0.210739 0.595451 -0.801544 0.054454
0.446392 -0.857952 -0.046040 0.595451 -0.801544 0.054454
0.541927 -0.769536 0.210739 0.758806 -0.617568 0.206940
0.619482 -0.721504 0.069705 0.758806 -0.617568 0.206940
0.569247 -0.691709 0.342821 0.758806 -0.617568 0.206940
0.876689 -0.216316 0.158974 0.922468 -0.370168 0.109672
0.832129 -0.283733 0.306222 0.922468 -0.370168 0.109672
0.858742 -0.299649 0.028657 0.922468 -0.370168 0.109672
0.876689 -0.216316 0.158974 0.991739 -0.109761 -0.066387
0.858742 -0.299649 0.028657 0.991739 -0.109761 -0.066387
0.894397 -0.049651 0.147958 0.991739 -0.109761 -0.066387
0.832129 -0.283733 0.306222 0.964158 -0.114717 0.239246
0.876689 -0.216316 0.158974 0.964158 -0.114717 0.239246
0.839026 -0.049651 0.390668 0.964158 -0.114717 0.239246
0.813566 -0.382982 -0.112375 0.907829 -0.416982 -0.044414
0.858742 -0.299649 0.028657 0.907829 -0.416982 -0.044414
0.743351 -0.537202 -0.099689 0.907829 -0.416982 -0.044414
0.813566 -0.382982 -0.112375 0.865986 -0.416984 -0.276030
0.743351 -0.537202 -0.099689 0.865986 -0.416984 -0.276030
0.806541 -0.299649 -0.260300 0.865986 -0.416984 -0.276030
0.813566 -0.382982 -0.112375 0.958481 -0.226566 -0.173153
0.806541 -0.299649 -0.260300 0.958481 -0.226566 -0.173153
0.858742 -0.299649 0.028657 0.958481 -0.226566 -0.173153
0.777756 -0.216317 -0.388660 0.825784 -0.370173 -0.425503
0.806541 -0.299649 -0.260300 0.825784 -0.370173 -0.425503
0.684492 -0.283734 -0.511009 0.825784 -0.370173 -0.425503
0.798199 -0.049651 -0.384537 0.832219 -0.088539 -0.547332
0.777756 -0.216317 -0.388660 0.832219 -0.088539 -0.547332
0.661405 -0.049651 -0.592533 0.832219 -0.088539 -0.547332
0.777756 -0.216317 -0.388660 0.952280 -0.109759 -0.284807
0.798199 -0.049651 -0.384537 0.952280 -0.109759 -0.284807
0.806541 -0.299649 -0.260300 0.952280 -0.109759 -0.284807
0.565802 0.220019 -0.624408 0.481527 0.338541 -0.808407
0.500508 0.095019 -0.715647 0.481527 0.338541 -0.808407
0.488610 0.354854 -0.613921 0.481527 0.338541 -0.808407
0.565802 0.220019 -0.624408 0.686197 0.438007 -0.580760
0.488610 0.354854 -0.613921 0.686197 0.438007 -0.580760
0.684492 0.184432 -0.511009 0.686197 0.438007 -0.580760
0.500508 0.095019 -0.715647 0.686328 0.159441 -0.709601
0.565802 0.220019 -0.624408 0.686328 0.159441 -0.709601
0.661405 -0.049651 -0.592533 0.686328 0.159441 -0.709601
0.389658 0.489691 -0.583871 0.428193 0.484276 -0.762973
0.488610 0.354854 -0.613921 0.428193 0.484276 -0.762973
0.238707 0.501671 -0.660983 0.428193 0.484276 -0.762973
0.389658 0.489691 -0.583871 0.377540 0.674695 -0.634232
0.238707 0.501671 -0.660983 0.377540 0.674695 -0.634232
0.425419 0.592410 -0.453311 0.377540 0.674695 -0.634232
0.389658 0.489691 -0.583871 0.577855 0.557010 -0.596510
0.425419 0.592410 -0.453311 0.577855 0.557010 -0.596510
0.488610 0.354854 -0.613921 0.577855 0.557010 -0.596510
0.446042 0.670237 -0.320016 0.364491 0.778514 -0.510942
0.425419 0.592410 -0.453311 0.364491 0.778514 -0.510942
0.321790 0.766876 -0.261406 0.364491 0.778514 -0.510942
0.568043 0.622202 -0.215032 0.538760 0.801545 -0.259350
0.446042 0.670237 -0.320016 0.538760 0.801545 -0.259350
0.446392 0.758650 -0.046040 0.538760 0.801545 -0.259350
0.446042 0.670237 -0.320016 0.638435 0.617570 -0.459355
0.568043 0.622202 -0.215032 0.638435 0.617570 -0.459355
0.425419 0.592410 -0.453311 0.638435 0.617570 -0.459355
0.258237 0.836902 0.157315 0.128725 0.987742 0.088288
0.221037 0.856288 -0.005330 0.128725 0.987742 0.088288
0.143713 0.842409 0.262685 0.128725 0.987742 0.088288
0.258237 0.836902 0.157315 0.333395 0.888274 0.315938
0.143713 0.842409 0.262685 0.333395 0.888274 0.315938
0.405022 0.766874 0.199308 0.333395 0.888274 0.315938
0.221037 0.856288 -0.005330 0.400181 0.916265 0.017682
0.258237 0.836902 0.157315 0.400181 0.916265 0.017682
0.446392 0.758650 -0.046040 0.400181 0.916265 0.017682
0.014049 0.823025 0.370791 0.040282 0.973995 0.222960
0.143713 0.842409 0.262685 0.040282 0.973995 0.222960
-0.145246 0.842411 0.314884 0.040282 0.973995 0.222960
0.014049 0.823025 0.370791 -0.041678 0.901261 0.431267
-0.145246 0.842411 0.314884 -0.041678 0.901261 0.431267
0.041467 0.751671 0.522556 -0.041678 0.901261 0.431267
0.014049 0.823025 0.370791 0.189942 0.901262 0.389422
0.041467 0.751671 0.522556 0.189942 0.901262 0.389422
0.143713 0.842409 0.262685 0.189942 0.901262 0.389422
0.064460 0.664933 0.649826 -0.060644 0.819685 0.569595
0.041467 0.751671 0.522556 -0.060644 0.819685 0.569595
-0.068136 0.599660 0.729641 -0.060644 0.819685 0.569595
0.216602 0.599658 0.678203 0.148693 0.664820 0.732055
0.064460 0.664933 0.649826 0.148693 0.664820 0.732055
0.098491 0.449903 0.838195 0.148693 0.664820 0.732055
0.064460 0.664933 0.649826 0.256113 0.819686 0.512369
0.216602 0.599658 0.678203 0.256113 0.819686 0.512369
0.041467 0.751671 0.522556 0.256113 0.819686 0.512369
-0.051610 0.228595 0.944830 -0.206354 0.271918 0.939935
-0.130404 0.365574 0.887904 -0.206354 0.271918 0.939935
-0.132637 0.097164 0.965064 -0.206354 0.271918 0.939935
-0.051610 0.228595 0.944830 0.067588 0.110974 0.991522
-0.132637 0.097164 0.965064 0.067588 0.110974 0.991522
0.115850 0.220903 0.934276 0.067588 0.110974 0.991522
-0.130404 0.365574 0.887904 0.048222 0.406842 0.912225
-0.051610 0.228595 0.944830 0.048222 0.406842 0.912225
0.098491 0.449903 0.838195 0.048222 0.406842 0.912225
-0.218090 -0.049651 0.960803 -0.250113 0.117686 0.961038
-0.132637 0.097164 0.965064 -0.250113 0.117686 0.961038
-0.382541 -0.049651 0.918004 -0.250113 0.117686 0.961038
-0.218090 -0.049651 0.960803 -0.250113 -0.117686 0.961038
-0.382541 -0.049651 0.918004 -0.250113 -0.117686 0.961038
-0.132637 -0.196466 0.965064 -0.250113 -0.117686 0.961038
-0.218090 -0.049651 0.960803 -0.049801 -0.000000 0.998759
-0.132637 -0.196466 0.965064 -0.049801 -0.000000 0.998759
-0.132637 0.097164 0.965064 -0.049801 -0.000000 0.998759
-0.051610 -0.327897 0.944830 -0.206355 -0.271918 0.939935
-0.132637 -0.196466 0.965064 -0.206355 -0.271918 0.939935
-0.130404 -0.464877 0.887904 -0.206355 -0.271918 0.939935
0.115850 -0.320205 0.934276 0.075764 -0.390661 0.917412
-0.051610 -0.327897 0.944830 0.075764 -0.390661 0.917412
0.098491 -0.549205 0.838195 0.075764 -0.390661 0.917412
-0.051610 -0.327897 0.944830 0.067588 -0.110973 0.991522
0.115850 -0.320205 0.934276 0.067588 -0.110973 0.991522
-0.132637 -0.196466 0.965064 0.067588 -0.110973 0.991522
0.064460 -0.764236 0.649826 -0.060644 -0.819685 0.569595
-0.068136 -0.698962 0.729641 -0.060644 -0.819685 0.569595
0.041467 -0.850973 0.522556 -0.060644 -0.819685 0.569595
0.064460 -0.764236 0.649826 0.256113 -0.819686 0.512369
0.041467 -0.850973 0.522556 0.256113 -0.819686 0.512369
0.216602 -0.698961 0.678203 0.256113 -0.819686 0.512369
-0.068136 -0.698962 0.729641 0.116847 -0.664820 0.737808
0.064460 -0.764236 0.649826 0.116847 -0.664820 0.737808
0.098491 -0.549205 0.838195 0.116847 -0.664820 0.737808
0.014049 -0.922327 0.370791 -0.041678 -0.901261 0.431267
0.041467 -0.850973 0.522556 -0.041678 -0.901261 0.431267
-0.145246 -0.941713 0.314884 -0.041678 -0.901261 0.431267
0.014049 -0.922327 0.370791 0.040282 -0.973995 0.222960
-0.145246 -0.941713 0.314884 0.040282 -0.973995 0.222960
0.143713 -0.941712 0.262685 0.040282 -0.973995 0.222960
0.014049 -0.922327 0.370791 0.189942 -0.901262 0.389422
0.143713 -0.941712 0.262685 0.189942 -0.901262 0.389422
0.041467 -0.850973 0.522556 0.189942 -0.901262 0.389422
0.258237 -0.936205 0.157315 0.128725 -0.987742 0.088288
0.143713 -0.941712 0.262685 0.128725 -0.987742 0.088288
0.221037 -0.955591 -0.005330 0.128725 -0.987742 0.088288
0.405022 -0.866176 0.199308 0.420758 -0.906265 0.040569
0.258237 -0.936205 0.157315 0.420758 -0.906265 0.040569
0.446392 -0.857952 -0.046040 0.420758 -0.906265 0.040569
0.258237 -0.936205 0.157315 0.333395 -0.888274 0.315938
0.405022 -0.866176 0.199308 0.333395 -0.888274 0.315938
0.143713 -0.941712 0.262685 0.333395 -0.888274 0.315938
0.446042 -0.769539 -0.320016 0.364491 -0.778514 -0.510942
0.321790 -0.866178 -0.261406 0.364491 -0.778514 -0.510942
0.425419 -0.691712 -0.453311 0.364491 -0.778514 -0.510942
0.446042 -0.769539 -0.320016 0.638435 -0.617571 -0.459355
0.425419 -0.691712 -0.453311 0.638435 -0.617571 -0.459355
0.568043 -0.721505 -0.215032 0.638435 -0.617571 -0.459355
0.321790 -0.866178 -0.261406 0.511220 -0.817726 -0.264536
0.446042 -0.769539 -0.320016 0.511220 -0.817726 -0.264536
0.446392 -0.857952 -0.046040 0.511220 -0.817726 -0.264536
0.389658 -0.588993 -0.583871 0.377540 -0.674695 -0.634232
0.425419 -0.691712 -0.453311 0.377540 -0.674695 -0.634232
0.238707 -0.600974 -0.660983 0.377540 -0.674695 -0.634232
0.389658 -0.588993 -0.583871 0.428193 -0.484276 -0.762973
0.238707 -0.600974 -0.660983 0.428193 -0.484276 -0.762973
0.488610 -0.454157 -0.613921 0.428193 -0.484276 -0.762973
0.389658 -0.588993 -0.583871 0.577855 -0.557010 -0.596510
0.488610 -0.454157 -0.613921 0.577855 -0.557010 -0.596510
0.425419 -0.691712 -0.453311 0.577855 -0.557010 -0.596510
0.565802 -0.319321 -0.624408 0.481528 -0.338541 -0.808407
0.488610 -0.454157 -0.613921 0.481528 -0.338541 -0.808407
0.500508 -0.194322 -0.715647 0.481528 -0.338541 -0.808407
0.684492 -0.283734 -0.511009 0.706904 -0.169441 -0.686714
0.565802 -0.319321 -0.624408 0.706904 -0.169441 -0.686714
0.661405 -0.049651 -0.592533 0.706904 -0.169441 -0.686714
0.565802 -0.319321 -0.624408 0.686198 -0.438007 -0.580760
0.684492 -0.283734 -0.511009 0.686198 -0.438007 -0.580760
0.488610 -0.454157 -0.613921 0.686198 -0.438007 -0.580760
0.198976 0.836904 -0.170711 0.201783 0.888274 -0.412616
0.321790 0.766876 -0.261406 0.201783 0.888274 -0.412616
0.054821 0.842411 -0.229353 0.201783 0.888274 -0.412616
0.198976 0.836904 -0.170711 0.089695 0.987744 -0.127738
0.054821 0.842411 -0.229353 0.089695 0.987744 -0.127738
0.221037 0.856288 -0.005330 0.089695 0.987744 -0.127738
0.321790 0.766876 -0.261406 0.379971 0.906265 -0.185219
0.198976 0.836904 -0.170711 0.379971 0.906265 -0.185219
0.446392 0.758650 -0.046040 0.379971 0.906265 -0.185219
-0.104474 0.823025 -0.285260 0.041677 0.901261 -0.431267
0.054821 0.842411 -0.229353 0.041677 0.901261 -0.431267
-0.131892 0.751671 -0.437025 0.041677 0.901261 -0.431267
-0.104474 0.823025 -0.285260 -0.189942 0.901262 -0.389422
-0.131892 0.751671 -0.437025 -0.189942 0.901262 -0.389422
-0.234137 0.842409 -0.177154 -0.189942 0.901262 -0.389422
-0.104474 0.823025 -0.285260 -0.040282 0.973995 -0.222961
-0.234137 0.842409 -0.177154 -0.040282 0.973995 -0.222961
0.054821 0.842411 -0.229353 -0.040282 0.973995 -0.222961
-0.348662 0.836902 -0.071783 -0.333395 0.888274 -0.315938
-0.234137 0.842409 -0.177154 -0.333395 0.888274 -0.315938
-0.495447 0.766874 -0.113777 -0.333395 0.888274 -0.315938
-0.311462 0.856288 0.090862 -0.400182 0.916265 -0.017682
-0.348662 0.836902 -0.071783 -0.400182 0.916265 -0.017682
-0.536817 0.758650 0.131571 -0.400182 0.916265 -0.017682
-0.348662 0.836902 -0.071783 -0.128726 0.987742 -0.088289
-0.311462 0.856288 0.090862 -0.128726 0.987742 -0.088289
-0.234137 0.842409 -0.177154 -0.128726 0.987742 -0.088289
-0.182606 0.498267 0.799131 -0.223353 0.709925 0.667922
-0.068136 0.599660 0.729641 -0.223353 0.709925 0.667922
-0.329132 0.501671 0.746514 -0.223353 0.709925 0.667922
-0.182606 0.498267 0.799131 -0.292626 0.449514 0.843983
-0.329132 0.501671 0.746514 -0.292626 0.449514 0.843983
-0.130404 0.365574 0.887904 -0.292626 0.449514 0.843983
-0.068136 0.599660 0.729641 -0.014402 0.576281 0.817125
-0.182606 0.498267 0.799131 -0.014402 0.576281 0.817125
0.098491 0.449903 0.838195 -0.014402 0.576281 0.817125
-0.480083 0.489691 0.669403 -0.377539 0.674695 0.634232
-0.329132 0.501671 0.746514 -0.377539 0.674695 0.634232
-0.515844 0.592410 0.538843 -0.377539 0.674695 0.634232
-0.480083 0.489691 0.669403 -0.577854 0.557010 0.596510
-0.515844 0.592410 0.538843 -0.577854 0.557010 0.596510
-0.579035 0.354854 0.699453 -0.577854 0.557010 0.596510
-0.480083 0.489691 0.669403 -0.428193 0.484277 0.762973
-0.579035 0.354854 0.699453 -0.428193 0.484277 0.762973
-0.329132 0.501671 0.746514 -0.428193 0.484277 0.762973
-0.656227 0.220019 0.709939 -0.686198 0.438007 0.580760
-0.579035 0.354854 0.699453 -0.686198 0.438007 0.580760
-0.774917 0.184432 0.596541 -0.686198 0.438007 0.580760
-0.590933 0.095019 0.801179 -0.686328 0.159441 0.709601
-0.656227 0.220019 0.709939 -0.686328 0.159441 0.709601
-0.751830 -0.049651 0.678065 -0.686328 0.159441 0.709601
-0.656227 0.220019 0.709939 -0.481527 0.338540 0.808407
-0.590933 0.095019 0.801179 -0.481527 0.338540 0.808407
-0.579035 0.354854 0.699453 -0.481527 0.338540 0.808407
-0.182606 -0.597569 0.799131 -0.292626 -0.449514 0.843983
-0.130404 -0.464877 0.887904 -0.292626 -0.449514 0.843983
-0.329132 -0.600974 0.746514 -0.292626 -0.449514 0.843983
-0.182606 -0.597569 0.799131 -0.223353 -0.709925 0.667922
-0.329132 -0.600974 0.746514 -0.223353 -0.709925 0.667922
-0.068136 -0.698962 0.729641 -0.223353 -0.709925 0.667922
-0.130404 -0.464877 0.887904 -0.021366 -0.550101 0.834825
-0.182606 -0.597569 0.799131 -0.021366 -0.550101 0.834825
0.098491 -0.549205 0.838195 -0.021366 -0.550101 0.834825
-0.480083 -0.588993 0.669403 -0.428193 -0.484277 0.762972
-0.329132 -0.600974 0.746514 -0.428193 -0.484277 0.762972
-0.579035 -0.454156 0.699453 -0.428193 -0.484277 0.762972
-0.480083 -0.588993 0.669403 -0.577854 -0.557010 0.596510
-0.579035 -0.454156 0.699453 -0.577854 -0.557010 0.596510
-0.515844 -0.691712 0.538843 -0.577854 -0.557010 0.596510
-0.480083 -0.588993 0.669403 -0.377540 -0.674695 0.634232
-0.515844 -0.691712 0.538843 -0.377540 -0.674695 0.634232
-0.329132 -0.600974 0.746514 -0.377540 -0.674695 0.634232
-0.536467 -0.769539 0.405548 -0.638435 -0.617571 0.459355
-0.515844 -0.691712 0.538843 -0.638435 -0.617571 0.459355
-0.658467 -0.721505 0.300563 -0.638435 -0.617571 0.459355
-0.412214 -0.866178 0.346938 -0.511220 -0.817726 0.264536
-0.536467 -0.769539 0.405548 -0.511220 -0.817726 0.264536
-0.536817 -0.857952 0.131571 -0.511220 -0.817726 0.264536
-0.536467 -0.769539 0.405548 -0.364492 -0.778514 0.510942
-0.412214 -0.866178 0.346938 -0.364492 -0.778514 0.510942
-0.515844 -0.691712 0.538843 -0.364492 -0.778514 0.510942
0.198976 -0.936207 -0.170711 0.089695 -0.987744 -0.127738
0.221037 -0.955591 -0.005330 0.089695 -0.987744 -0.127738
0.054821 -0.941713 -0.229353 0.089695 -0.987744 -0.127738
0.198976 -0.936207 -0.170711 0.201783 -0.888274 -0.412616
0.054821 -0.941713 -0.229353 0.201783 -0.888274 -0.412616
0.321790 -0.866178 -0.261406 0.201783 -0.888274 -0.412616
0.221037 -0.955591 -0.005330 0.368702 -0.916265 -0.156579
0.198976 -0.936207 -0.170711 0.368702 -0.916265 -0.156579
0.446392 -0.857952 -0.046040 0.368702 -0.916265 -0.156579
-0.104474 -0.922327 -0.285260 -0.040283 -0.973995 -0.222961
0.054821 -0.941713 -0.229353 -0.040283 -0.973995 -0.222961
-0.234137 -0.941711 -0.177154 -0.040283 -0.973995 -0.222961
-0.104474 -0.922327 -0.285260 -0.189941 -0.901262 -0.389422
-0.234137 -0.941711 -0.177154 -0.189941 -0.901262 -0.389422
-0.131892 -0.850973 -0.437025 -0.189941 -0.901262 -0.389422
-0.104474 -0.922327 -0.285260 0.041677 -0.901261 -0.431266
-0.131892 -0.850973 -0.437025 0.041677 -0.901261 -0.431266
0.054821 -0.941713 -0.229353 0.041677 -0.901261 -0.431266
-0.154885 -0.764236 -0.564294 -0.256112 -0.819686 -0.512369
-0.131892 -0.850973 -0.437025 -0.256112 -0.819686 -0.512369
-0.307027 -0.698961 -0.592671 -0.256112 -0.819686 -0.512369
-0.022289 -0.698962 -0.644109 -0.116847 -0.664820 -0.737808
-0.154885 -0.764236 -0.564294 -0.116847 -0.664820 -0.737808
-0.188916 -0.549205 -0.752663 -0.116847 -0.664820 -0.737808
-0.154885 -0.764236 -0.564294 0.060644 -0.819685 -0.569595
-0.022289 -0.698962 -0.644109 0.060644 -0.819685 -0.569595
-0.131892 -0.850973 -0.437025 0.060644 -0.819685 -0.569595
0.434806 -0.049651 -0.770109 0.395256 -0.160947 -0.904361
0.500508 -0.194322 -0.715647 0.395256 -0.160947 -0.904361
0.292116 -0.049651 -0.832472 0.395256 -0.160947 -0.904361
0.434806 -0.049651 -0.770109 0.395256 0.160947 -0.904361
0.292116 -0.049651 -0.832472 0.395256 0.160947 -0.904361
0.500508 0.095019 -0.715647 0.395256 0.160947 -0.904361
0.500508 -0.194322 -0.715647 0.616740 -0.016180 -0.787001
0.434806 -0.049651 -0.770109 0.616740 -0.016180 -0.787001
0.661405 -0.049651 -0.592533 0.616740 -0.016180 -0.787001
0.127666 -0.049651 -0.875271 0.250113 -0.117686 -0.961038
0.292116 -0.049651 -0.832472 0.250113 -0.117686 -0.961038
0.042213 -0.196466 -0.879532 0.250113 -0.117686 -0.961038
0.127666 -0.049651 -0.875271 0.049801 0.000000 -0.998759
0.042213 -0.196466 -0.879532 0.049801 0.000000 -0.998759
0.042213 0.097164 -0.879532 0.049801 0.000000 -0.998759
0.127666 -0.049651 -0.875271 0.250113 0.117686 -0.961038
0.042213 0.097164 -0.879532 0.250113 0.117686 -0.961038
0.292116 -0.049651 -0.832472 0.250113 0.117686 -0.961038
-0.038815 0.228595 -0.859299 -0.067588 0.110973 -0.991522
0.042213 0.097164 -0.879532 -0.067588 0.110973 -0.991522
-0.206275 0.220903 -0.848744 -0.067588 0.110973 -0.991522
0.039979 0.365574 -0.802372 -0.048222 0.406842 -0.912225
-0.038815 0.228595 -0.859299 -0.048222 0.406842 -0.912225
-0.188916 0.449903 -0.752663 -0.048222 0.406842 -0.912225
-0.038815 0.228595 -0.859299 0.206354 0.271918 -0.939935
0.039979 0.365574 -0.802372 0.206354 0.271918 -0.939935
0.042213 0.097164 -0.879532 0.206354 0.271918 -0.939935
-0.438575 0.498265 -0.617716 -0.569436 0.449512 -0.688246
-0.420735 0.365573 -0.719141 -0.569436 0.449512 -0.688246
-0.557427 0.501669 -0.517158 -0.569436 0.449512 -0.688246
-0.438575 0.498265 -0.617716 -0.442941 0.709923 -0.547552
-0.557427 0.501669 -0.517158 -0.442941 0.709923 -0.547552
-0.307027 0.599658 -0.592671 -0.442941 0.709923 -0.547552
-0.420735 0.365573 -0.719141 -0.312119 0.550099 -0.774580
-0.438575 0.498265 -0.617716 -0.312119 0.550099 -0.774580
-0.188916 0.449903 -0.752663 -0.312119 0.550099 -0.774580
-0.671853 0.489688 -0.392106 -0.668086 0.484273 -0.564925
-0.557427 0.501669 -0.517158 -0.668086 0.484273 -0.564925
-0.775064 0.354853 -0.385634 -0.668086 0.484273 -0.564925
-0.671853 0.489688 -0.392106 -0.750044 0.557007 -0.356620
-0.775064 0.354853 -0.385634 -0.750044 0.557007 -0.356620
-0.659672 0.592407 -0.257290 -0.750044 0.557007 -0.356620
-0.671853 0.489688 -0.392106 -0.575591 0.674690 -0.462047
-0.659672 0.592407 -0.257290 -0.575591 0.674690 -0.462047
-0.557427 0.501669 -0.517158 -0.575591 0.674690 -0.462047
-0.632352 0.670234 -0.125208 -0.758805 0.617569 -0.206939
-0.659672 0.592407 -0.257290 -0.758805 0.617569 -0.206939
-0.709907 0.622201 0.015827 -0.758805 0.617569 -0.206939
-0.495447 0.766874 -0.113777 -0.571466 0.817724 -0.068948
-0.632352 0.670234 -0.125208 -0.571466 0.817724 -0.068948
-0.536817 0.758650 0.131571 -0.571466 0.817724 -0.068948
-0.632352 0.670234 -0.125208 -0.520226 0.778511 -0.351120
-0.495447 0.766874 -0.113777 -0.520226 0.778511 -0.351120
-0.659672 0.592407 -0.257290 -0.520226 0.778511 -0.351120
-0.748421 0.567229 0.169799 -0.835245 0.549733 -0.012659
-0.709907 0.622201 0.015827 -0.835245 0.549733 -0.012659
-0.833776 0.437900 0.185220 -0.835245 0.549733 -0.012659
-0.748421 0.567229 0.169799 -0.778020 0.549735 0.304098
-0.833776 0.437900 0.185220 -0.778020 0.549735 0.304098
-0.658468 0.622202 0.300563 -0.778020 0.549735 0.304098
-0.709907 0.622201 0.015827 -0.657112 0.746824 0.102265
-0.748421 0.567229 0.169799 -0.657112 0.746824 0.102265
-0.536817 0.758650 0.131571 -0.657112 0.746824 0.102265
-0.903991 0.283680 0.197906 -0.907829 0.416982 0.044414
-0.833776 0.437900 0.185220 -0.907829 0.416982 0.044414
-0.949167 0.200347 0.056875 -0.907829 0.416982 0.044414
-0.903991 0.283680 0.197906 -0.958481 0.226566 0.173153
-0.949167 0.200347 0.056875 -0.958481 0.226566 0.173153
-0.896966 0.200347 0.345831 -0.958481 0.226566 0.173153
-0.903991 0.283680 0.197906 -0.865986 0.416984 0.276031
-0.896966 0.200347 0.345831 -0.865986 0.416984 0.276031
-0.833776 0.437900 0.185220 -0.865986 0.416984 0.276031
-0.868181 0.117015 0.474192 -0.952280 0.109759 0.284807
-0.896966 0.200347 0.345831 -0.952280 0.109759 0.284807
-0.888624 -0.049651 0.470069 -0.952280 0.109759 0.284807
-0.774917 0.184432 0.596541 -0.819502 0.114719 0.561476
-0.868181 0.117015 0.474192 -0.819502 0.114719 0.561476
-0.751830 -0.049651 0.678065 -0.819502 0.114719 0.561476
-0.868181 0.117015 0.474192 -0.825784 0.370173 0.425503
-0.774917 0.184432 0.596541 -0.825784 0.370173 0.425503
-0.896966 0.200347 0.345831 -0.825784 0.370173 0.425503
-0.868181 -0.216317 0.474192 -0.952280 -0.109759 0.284807
-0.888624 -0.049651 0.470069 -0.952280 -0.109759 0.284807
-0.896966 -0.299649 0.345831 -0.952280 -0.109759 0.284807
-0.868181 -0.216317 0.474192 -0.825784 -0.370173 0.425503
-0.896966 -0.299649 0.345831 -0.825784 -0.370173 0.425503
-0.774917 -0.283734 0.596541 -0.825784 -0.370173 0.425503
-0.888624 -0.049651 0.470069 -0.832219 -0.088539 0.547332
-0.868181 -0.216317 0.474192 -0.832219 -0.088539 0.547332
-0.751830 -0.049651 0.678065 -0.832219 -0.088539 0.547332
-0.903991 -0.382982 0.197906 -0.958481 -0.226566 0.173153
-0.896966 -0.299649 0.345831 -0.958481 -0.226566 0.173153
-0.949167 -0.299649 0.056875 -0.958481 -0.226566 0.173153
-0.903991 -0.382982 0.197906 -0.907829 -0.416982 0.044414
-0.949167 -0.299649 0.056875 -0.907829 -0.416982 0.044414
-0.833776 -0.537202 0.185220 -0.907829 -0.416982 0.044414
-0.903991 -0.382982 0.197906 -0.865986 -0.416984 0.276030
-0.833776 -0.537202 0.185220 -0.865986 -0.416984 0.276030
-0.896966 -0.299649 0.345831 -0.865986 -0.416984 0.276030
-0.748421 -0.666532 0.169799 -0.835244 -0.549733 -0.012658
-0.833776 -0.537202 0.185220 -0.835244 -0.549733 -0.012658
-0.709907 -0.721504 0.015827 -0.835244 -0.549733 -0.012658
-0.658467 -0.721505 0.300563 -0.651359 -0.746823 0.134111
-0.748421 -0.666532 0.169799 -0.651359 -0.746823 0.134111
-0.536817 -0.857952 0.131571 -0.651359 -0.746823 0.134111
-0.748421 -0.666532 0.169799 -0.778020 -0.549735 0.304098
-0.658467 -0.721505 0.300563 -0.778020 -0.549735 0.304098
-0.833776 -0.537202 0.185220 -0.778020 -0.549735 0.304098
-0.366840 0.228594 -0.800038 -0.283616 0.110974 -0.952495
-0.206275 0.220903 -0.848744 -0.283616 0.110974 -0.952495
-0.449825 0.097163 -0.790641 -0.283616 0.110974 -0.952495
-0.366840 0.228594 -0.800038 -0.522193 0.271917 -0.808317
-0.449825 0.097163 -0.790641 -0.522193 0.271917 -0.808317
-0.420735 0.365573 -0.719141 -0.522193 0.271917 -0.808317
-0.206275 0.220903 -0.848744 -0.250027 0.390661 -0.885929
-0.366840 0.228594 -0.800038 -0.250027 0.390661 -0.885929
-0.188916 0.449903 -0.752663 -0.250027 0.390661 -0.885929
-0.528384 -0.049651 -0.756750 -0.396120 0.000000 -0.918199
-0.449825 0.097163 -0.790641 -0.396120 0.000000 -0.918199
-0.449825 -0.196465 -0.790641 -0.396120 0.000000 -0.918199
-0.528384 -0.049651 -0.756750 -0.570569 -0.117684 -0.812774
-0.449825 -0.196465 -0.790641 -0.570569 -0.117684 -0.812774
-0.667463 -0.049651 -0.659116 -0.570569 -0.117684 -0.812774
-0.528384 -0.049651 -0.756750 -0.570569 0.117684 -0.812774
-0.667463 -0.049651 -0.659116 -0.570569 0.117684 -0.812774
-0.449825 0.097163 -0.790641 -0.570569 0.117684 -0.812774
-0.779311 -0.049651 -0.550770 -0.686705 -0.160942 -0.708896
-0.667463 -0.049651 -0.659116 -0.686705 -0.160942 -0.708896
-0.821803 -0.194321 -0.476763 -0.686705 -0.160942 -0.708896
-0.821803 0.095019 -0.476763 -0.853122 0.016179 -0.521460
-0.779311 -0.049651 -0.550770 -0.853122 0.016179 -0.521460
-0.929451 -0.049651 -0.305136 -0.853122 0.016179 -0.521460
-0.779311 -0.049651 -0.550770 -0.686705 0.160942 -0.708896
-0.821803 0.095019 -0.476763 -0.686705 0.160942 -0.708896
-0.667463 -0.049651 -0.659116 -0.686705 0.160942 -0.708896
-0.632352 -0.769536 -0.125208 -0.758805 -0.617568 -0.206939
-0.709907 -0.721504 0.015827 -0.758805 -0.617568 -0.206939
-0.659672 -0.691709 -0.257290 -0.758805 -0.617568 -0.206939
-0.632352 -0.769536 -0.125208 -0.520226 -0.778511 -0.351121
-0.659672 -0.691709 -0.257290 -0.520226 -0.778511 -0.351121
-0.495447 -0.866176 -0.113777 -0.520226 -0.778511 -0.351121
-0.709907 -0.721504 0.015827 -0.595451 -0.801544 -0.054454
-0.632352 -0.769536 -0.125208 -0.595451 -0.801544 -0.054454
-0.536817 -0.857952 0.131571 -0.595451 -0.801544 -0.054454
-0.671853 -0.588991 -0.392106 -0.750044 -0.557007 -0.356620
-0.659672 -0.691709 -0.257290 -0.750044 -0.557007 -0.356620
-0.775064 -0.454155 -0.385634 -0.750044 -0.557007 -0.356620
-0.671853 -0.588991 -0.392106 -0.668087 -0.484273 -0.564925
-0.775064 -0.454155 -0.385634 -0.668087 -0.484273 -0.564925
-0.557427 -0.600971 -0.517158 -0.668087 -0.484273 -0.564925
-0.671853 -0.588991 -0.392106 -0.575592 -0.674690 -0.462047
-0.557427 -0.600971 -0.517158 -0.575592 -0.674690 -0.462047
-0.659672 -0.691709 -0.257290 -0.575592 -0.674690 -0.462047
-0.438575 -0.597567 -0.617716 -0.569435 -0.449512 -0.688246
-0.557427 -0.600971 -0.517158 -0.569435 -0.449512 -0.688246
-0.420735 -0.464876 -0.719141 -0.569435 -0.449512 -0.688246
-0.307027 -0.698961 -0.592671 -0.299402 -0.576278 -0.760435
-0.438575 -0.597567 -0.617716 -0.299402 -0.576278 -0.760435
-0.188916 -0.549205 -0.752663 -0.299402 -0.576278 -0.760435
-0.438575 -0.597567 -0.617716 -0.442941 -0.709923 -0.547552
-0.307027 -0.698961 -0.592671 -0.442941 -0.709923 -0.547552
-0.557427 -0.600971 -0.517158 -0.442941 -0.709923 -0.547552
3 0 1 2
3 3 4 5
3 6 7 8
3 9 10 11
3 12 13 14
3 15 16 17
3 18 19 20
3 21 22 23
3 24 25 26
3 27 28 29
3 30 31 32
3 33 34 35
3 36 37 38
3 39 40 41
3 42 43 44
3 45 46 47
3 48 49 50
3 51 52 53
3 54 55 56
3 57 58 59
3 60 61 62
3 63 64 65
3 66 67 68
3 69 70 71
3 72 73 74
3 75 76 77
3 78 79 80
3 81 82 83
3 84 85 86
3 87 88 89
3 90 91 92
3 93 94 95
3 96 97 98
3 99 100 101
3 102 103 104
3 105 106 107
3 108 109 110
3 111 112 113
3 114 115 116
3 117 118 119
3 120 121 122
3 123 124 125
3 126 127 128
3 129 130 131
3 132 133 134
3 135 136 137
3 138 139 140
3 141 142 143
3 144 145 146
3 147 148 149
3 150 151 152
3 153 154 155
3 156 157 158
3 159 160 161
3 162 163 164
3 165 166 167
3 168 169 170
3 171 172 173
3 174 175 176
3 177 178 179
3 180 181 182
3 183 184 185
3 186 187 188
3 189 190 191
3 192 193 194
3 195 196 197
3 198 199 200
3 201 202 203
3 204 205 206
3 207 208 209
3 210 211 212
3 213 214 215
3 216 217 218
3 219 220 221
3 222 223 224
3 225 226 227
3 228 229 230
3 231 232 233
3 234 235 236
3 237 238 239
3 240 241 242
3 243 244 245
3 246 247 248
3 249 250 251
3 252 253 254
3 255 256 257
3 258 259 260
3 261 262 263
3 264 265 266
3 267 268 269
3 270 271 272
3 273 274 275
3 276 277 278
3 279 280 281
3 282 283 284
3 285 286 287
3 288 289 290
3 291 292 293
3 294 295 296
3 297 298 299
3 300 301 302
3 303 304 305
3 306 307 308
3 309 310 311
3 312 313 314
3 315 316 317
3 318 319 320
3 321 322 323
3 324 325 326
3 327 328 329
3 330 331 332
3 333 334 335
3 336 337 338
3 339 340 341
3 342 343 344
3 345 346 347
3 348 349 350
3 351 352 353
3 354 355 356
3 357 358 359
3 360 361 362
3 363 364 365
3 366 367 368
3 369 370 371
3 372 373 374
3 375 376 377
3 378 379 380
3 381 382 383
3 384 385 386
3 387 388 389
3 390 391 392
3 393 394 395
3 396 397 398
3 399 400 401
3 402 403 404
3 405 406 407
3 408 409 410
3 411 412 413
3 414 415 416
3 417 418 419
3 420 421 422
3 423 424 425
3 426 427 428
3 429 430 431
3 432 433 434
3 435 436 437
3 438 439 440
3 441 442 443
3 444 445 446
3 447 448 449
3 450 451 452
3 453 454 455
3 456 457 458
3 459 460 461
3 462 463 464
3 465 466 467
3 468 469 470
3 471 472 473
3 474 475 476
3 477 478 479
3 480 481 482
3 483 484 485
3 486 487 488
3 489 490 491
3 492 493 494
3 495 496 497
3 498 499 500
3 501 502 503
3 504 505 506
3 507 508 509
3 510 511 512
3 513 514 515
3 516 517 518
3 519 520 521
3 522 523 524
3 525 526 527
3 528 529 530
3 531 532 533
3 534 535 536
3 537 538 539
3 540 541 542
3 543 544 545
3 546 547 548
3 549 550 551
3 552 553 554
3 555 556 557
3 558 559 560
3 561 562 563
3 564 565 566
3 567 568 569
3 570 571 572
3 573 574 575
3 576 577 578
3 579 580 581
3 582 583 584
3 585 586 587
3 588 589 590
3 591 592 593
3 594 595 596
3 597 598 599
3 600 601 602
3 603 604 605
3 606 607 608
3 609 610 611
3 612 613 614
3 615 616 617
3 618 619 620
3 621 622 623
3 624 625 626
3 627 628 629
3 630 631 632
3 633 634 635
3 636 637 638
3 639 640 641
3 642 643 644
3 645 646 647
3 648 649 650
3 651 652 653
3 654 655 656
3 657 658 659
3 660 661 662
3 663 664 665
3 666 667 668
3 669 670 671
3 672 673 674
3 675 676 677
3 678 679 680
3 681 682 683
3 684 685 686
3 687 688 689
3 690 691 692
3 693 694 695
3 696 697 698
3 699 700 701
3 702 703 704
3 705 706 707
3 708 709 710
3 711 712 713
3 714 715 716
3 717 718 719
3 720 721 722
3 723 724 725
3 726 727 728
3 729 730 731
3 732 733 734
3 735 736 737
3 738 739 740
3 741 742 743
3 744 745 746
3 747 748 749
3 750 751 752
3 753 754 755
3 756 757 758
3 759 760 761
3 762 763 764
3 765 766 767
3 768 769 770
3 771 772 773
3 774 775 776
3 777 778 779
3 780 781 782
3 783 784 785
3 786 787 788
3 789 790 791
3 792 793 794
3 795 796 797
3 798 799 800
3 801 802 803
3 804 805 806
3 807 808 809
3 810 811 812
3 813 814 815
3 816 817 818
3 819 820 821
3 822 823 824
3 825 826 827
3 828 829 830
3 831 832 833
3 834 835 836
3 837 838 839
3 840 841 842
3 843 844 845
3 846 847 848
3 849 850 851
3 852 853 854
3 855 856 857
3 858 859 860
3 861 862 863
3 864 865 866
3 867 868 869
3 870 871 872
3 873 874 875
3 876 877 878
3 879 880 881
3 882 883 884
3 885 886 887
3 888 889 890
3 891 892 893
3 894 895 896
3 897 898 899
3 900 901 902
3 903 904 905
3 906 907 908
3 909 910 911
3 912 913 914
3 915 916 917
3 918 919 920
3 921 922 923
3 924 925 926
3 927 928 929
3 930 931 932
3 933 934 935
3 936 937 938
3 939 940 941
3 942 943 944
3 945 946 947
3 948 949 950
3 951 952 953
3 954 955 956
3 957 958 959
3 960 961 962
3 963 964 965
3 966 967 968
3 969 970 971
3 972 973 974
3 975 976 977
3 978 979 980
3 981 982 983
3 984 985 986
3 987 988 989
3 990 991 992
3 993 994 995
3 996 997 998
3 999 1000 1001
3 1002 1003 1004
3 1005 1006 1007
3 1008 1009 1010
3 1011 1012 1013
3 1014 1015 1016
3 1017 1018 1019
3 1020 1021 1022
3 1023 1024 1025
3 1026 1027 1028
3 1029 1030 1031
3 1032 1033 1034
3 1035 1036 1037
3 1038 1039 1040
3 1041 1042 1043
3 1044 1045 1046
3 1047 1048 1049
3 1050 1051 1052
3 1053 1054 1055
3 1056 1057 1058
3 1059 1060 1061
3 1062 1063 1064
3 1065 1066 1067
3 1068 1069 1070
3 1071 1072 1073
3 1074 1075 1076
3 1077 1078 1079
3 1080 1081 1082
3 1083 1084 1085
3 1086 1087 1088
3 1089 1090 1091
3 1092 1093 1094
3 1095 1096 1097
3 1098 1099 1100
3 1101 1102 1103
3 1104 1105 1106
3 1107 1108 1109
3 1110 1111 1112
3 1113 1114 1115
3 1116 1117 1118
3 1119 1120 1121
3 1122 1123 1124
3 1125 1126 1127
3 1128 1129 1130
3 1131 1132 1133
3 1134 1135 1136
3 1137 1138 1139
3 1140 1141 1142
3 1143 1144 1145
3 1146 1147 1148
3 1149 1150 1151
3 1152 1153 1154
3 1155 1156 1157
3 1158 1159 1160
3 1161 1162 1163
3 1164 1165 1166
3 1167 1168 1169
3 1170 1171 1172
3 1173 1174 1175
3 1176 1177 1178
3 1179 1180 1181
3 1182 1183 1184
3 1185 1186 1187
3 1188 1189 1190
3 1191 1192 1193
3 1194 1195 1196
3 1197 1198 1199
3 1200 1201 1202
3 1203 1204 1205
3 1206 1207 1208
3 1209 1210 1211
3 1212 1213 1214
3 1215 1216 1217
3 1218 1219 1220
3 1221 1222 1223
3 1224 1225 1226
3 1227 1228 1229
3 1230 1231 1232
3 1233 1234 1235
3 1236 1237 1238
3 1239 1240 1241
3 1242 1243 1244
3 1245 1246 1247
3 1248 1249 1250
3 1251 1252 1253
3 1254 1255 1256
3 1257 1258 1259
3 1260 1261 1262
3 1263 1264 1265
3 1266 1267 1268
3 1269 1270 1271
3 1272 1273 1274
3 1275 1276 1277
3 1278 1279 1280
3 1281 1282 1283
3 1284 1285 1286
3 1287 1288 1289
3 1290 1291 1292
3 1293 1294 1295
3 1296 1297 1298
3 1299 1300 1301
3 1302 1303 1304
3 1305 1306 1307
3 1308 1309 1310
3 1311 1312 1313
3 1314 1315 1316
3 1317 1318 1319
3 1320 1321 1322
3 1323 1324 1325
3 1326 1327 1328
3 1329 1330 1331
3 1332 1333 1334
3 1335 1336 1337
3 1338 1339 1340
3 1341 1342 1343
3 1344 1345 1346
3 1347 1348 1349
3 1350 1351 1352
3 1353 1354 1355
3 1356 1357 1358
3 1359 1360 1361
3 1362 1363 1364
3 1365 1366 1367
3 1368 1369 1370
3 1371 1372 1373
3 1374 1375 1376
3 1377 1378 1379
3 1380 1381 1382
3 1383 1384 1385
3 1386 1387 1388
3 1389 1390 1391
3 1392 1393 1394
3 1395 1396 1397
3 1398 1399 1400
3 1401 1402 1403
3 1404 1405 1406
3 1407 1408 1409
3 1410 1411 1412
3 1413 1414 1415
3 1416 1417 1418
3 1419 1420 1421
3 1422 1423 1424
3 1425 1426 1427
3 1428 1429 1430
3 1431 1432 1433
3 1434 1435 1436
3 1437 1438 1439
